Inicio de las ejecuciones: 2017-10-13_12:39:03
	Inicio de las ejecuciones de sin: 2017-10-13_12:39:03
		h:2 l:1 e:0.1 m:0.9 v:0.1 : 2017-10-13_12:39:04
		h:2 l:2 e:0.1 m:0.9 v:0.1 : 2017-10-13_12:39:04
		h:5 l:1 e:0.1 m:0.9 v:0.1 : 2017-10-13_12:39:05
		h:5 l:2 e:0.1 m:0.9 v:0.1 : 2017-10-13_12:39:06
		h:10 l:1 e:0.1 m:0.9 v:0.1 : 2017-10-13_12:39:08
		h:10 l:2 e:0.1 m:0.9 v:0.1 : 2017-10-13_12:39:10
		h:25 l:1 e:0.1 m:0.9 v:0.1 : 2017-10-13_12:39:14
		h:25 l:2 e:0.1 m:0.9 v:0.1 : 2017-10-13_12:39:22
		h:50 l:1 e:0.1 m:0.9 v:0.1 : 2017-10-13_12:39:30
		h:50 l:2 e:0.1 m:0.9 v:0.1 : 2017-10-13_12:39:49
		h:100 l:1 e:0.1 m:0.9 v:0.1 : 2017-10-13_12:40:04
		h:100 l:2 e:0.1 m:0.9 v:0.1 : 2017-10-13_12:41:10
	Fin de las ejecuciones de sin: 2017-10-13_12:41:10
Fin de las ejecuciones 2017-10-13_12:41:10
