Iteracion Error-entrenamiento Error-validacion Error-test
1 0.00182696 6.78379e-05 0.00915703
2 0.00182696 6.78379e-05 0.00915703
3 0.00182696 6.78379e-05 0.00915703
4 0.00182696 6.78356e-05 0.00915702
5 0.00181987 6.33938e-05 0.00913582
6 0.00172613 6.36428e-05 0.00893888
7 0.00171933 0.000100192 0.00883485
8 0.00174169 9.10725e-05 0.00884711
9 0.00175277 7.66025e-05 0.00886583
10 0.00175807 7.04597e-05 0.00887055
11 0.00176061 6.86467e-05 0.00886487
12 0.00176192 6.79739e-05 0.00885457
13 0.00176275 6.77927e-05 0.00884397
14 0.0017633 6.81088e-05 0.00883508
15 0.00176344 6.85754e-05 0.00882795
16 0.00176313 6.88608e-05 0.00882211
17 0.00176253 6.88649e-05 0.00881763
18 0.00176184 6.86144e-05 0.00881478
19 0.00176121 6.81698e-05 0.00881349
20 0.00176072 6.75924e-05 0.0088134
21 0.00176038 6.69425e-05 0.00881403
22 0.00176017 6.62842e-05 0.00881494
23 0.00176006 6.56844e-05 0.00881568
24 0.00176002 6.52074e-05 0.00881593
25 0.00175999 6.49082e-05 0.00881547
26 0.00175992 6.48273e-05 0.00881428
27 0.00175976 6.49854e-05 0.00881251
28 0.00175946 6.53819e-05 0.00881039
29 0.001759 6.59951e-05 0.00880823
30 0.0017584 6.6786e-05 0.00880631
31 0.00175768 6.77068e-05 0.00880489
32 0.00175688 6.87103e-05 0.0088041
33 0.00175605 6.97613e-05 0.00880398
34 0.0017552 7.08423e-05 0.0088045
35 0.00175435 7.19546e-05 0.00880551
36 0.00175352 7.31133e-05 0.00880687
37 0.00175268 7.43389e-05 0.00880841
38 0.00175184 7.56476e-05 0.00880997
39 0.00175101 7.70414e-05 0.00881144
40 0.0017502 7.85003e-05 0.00881273
41 0.00174945 7.99766e-05 0.00881382
42 0.00174879 8.13969e-05 0.00881473
43 0.00174825 8.26703e-05 0.00881552
44 0.00174786 8.37063e-05 0.00881629
45 0.0017476 8.44337e-05 0.00881716
46 0.00174748 8.48161e-05 0.00881825
47 0.00174746 8.48568e-05 0.00881966
48 0.00174752 8.45934e-05 0.00882143
49 0.00174762 8.40853e-05 0.00882355
50 0.00174774 8.34007e-05 0.00882601
51 0.00174787 8.26053e-05 0.00882874
52 0.00174799 8.17563e-05 0.00883168
53 0.0017481 8.08996e-05 0.00883476
54 0.00174818 8.00697e-05 0.00883792
55 0.00174825 7.92915e-05 0.0088411
56 0.00174829 7.85816e-05 0.00884426
57 0.00174831 7.79508e-05 0.00884734
58 0.00174831 7.74051e-05 0.00885029
59 0.00174829 7.69478e-05 0.00885308
60 0.00174826 7.65796e-05 0.00885565
61 0.00174821 7.63002e-05 0.00885797
62 0.00174815 7.61082e-05 0.00886
63 0.00174807 7.60016e-05 0.0088617
64 0.00174799 7.59781e-05 0.00886306
65 0.0017479 7.60347e-05 0.00886406
66 0.0017478 7.61679e-05 0.00886469
67 0.00174769 7.63733e-05 0.00886496
68 0.00174757 7.66454e-05 0.00886489
69 0.00174745 7.69775e-05 0.0088645
70 0.00174732 7.73614e-05 0.00886382
71 0.00174719 7.77878e-05 0.00886289
72 0.00174706 7.82458e-05 0.00886177
73 0.00174694 7.8724e-05 0.0088605
74 0.00174682 7.92102e-05 0.00885912
75 0.00174671 7.96924e-05 0.00885769
76 0.0017466 8.01593e-05 0.00885624
77 0.0017465 8.06012e-05 0.00885482
78 0.00174639 8.10103e-05 0.00885347
79 0.00174629 8.13806e-05 0.00885219
80 0.00174619 8.17084e-05 0.00885102
81 0.0017461 8.19917e-05 0.00884996
82 0.001746 8.223e-05 0.00884903
83 0.00174592 8.24249e-05 0.00884821
84 0.00174584 8.25788e-05 0.00884751
85 0.00174576 8.26955e-05 0.00884693
86 0.0017457 8.27796e-05 0.00884644
1001 0.00174563 7.43389e-05 0.00880841
