Inicio de las ejecuciones: 2017-10-13_12:35:35
	Inicio de las ejecuciones de parkinsons: 2017-10-13_12:35:35
		h:25 l:2 e:0.1 m:0.9 v:0.1 : 2017-10-13_12:35:37
		h:50 l:1 e:0.1 m:0.9 v:0.1 : 2017-10-13_12:35:39
		h:50 l:2 e:0.1 m:0.9 v:0.1 : 2017-10-13_12:35:46
		h:100 l:1 e:0.1 m:0.9 v:0.1 : 2017-10-13_12:35:50
		h:100 l:2 e:0.1 m:0.9 v:0.1 : 2017-10-13_12:36:08
	Fin de las ejecuciones de forest: 2017-10-13_12:36:08
Fin de las ejecuciones 2017-10-13_12:36:08
