==> iris_l1n/iris/res_iris_r0.05_o1_e0.0000000001_classificacion_l2.txt <==
MSE de test: 0.026656 +- 0.008084
CCR de entrenamiento: 96.79% +- 0.71%
CCR de test: 93.16% +- 2.68%
Numero de coeficientes: 6.00 +- 0.00
CCR de entrenamiento: 96.79% +- 0.71%
CCR de test: 93.16% +- 2.68%

==> iris_l1n/iris/res_iris_r0.05_o1_e0.000000001_classificacion_l2.txt <==
MSE de test: 0.026658 +- 0.008084
CCR de entrenamiento: 96.79% +- 0.71%
CCR de test: 93.16% +- 2.68%
Numero de coeficientes: 6.00 +- 0.00
CCR de entrenamiento: 96.79% +- 0.71%
CCR de test: 93.16% +- 2.68%

==> iris_l1n/iris/res_iris_r0.05_o1_e0.00000001_classificacion_l2.txt <==
MSE de test: 0.026657 +- 0.008084
CCR de entrenamiento: 96.79% +- 0.71%
CCR de test: 93.16% +- 2.68%
Numero de coeficientes: 6.00 +- 0.00
CCR de entrenamiento: 96.79% +- 0.71%
CCR de test: 93.16% +- 2.68%

==> iris_l1n/iris/res_iris_r0.05_o1_e0.0000001_classificacion_l2.txt <==
MSE de test: 0.026779 +- 0.008146
CCR de entrenamiento: 96.79% +- 0.71%
CCR de test: 93.16% +- 2.68%
Numero de coeficientes: 6.00 +- 0.00
CCR de entrenamiento: 96.79% +- 0.71%
CCR de test: 93.16% +- 2.68%

==> iris_l1n/iris/res_iris_r0.05_o1_e0.000001_classificacion_l2.txt <==
MSE de test: 0.026694 +- 0.008101
CCR de entrenamiento: 96.79% +- 0.71%
CCR de test: 93.16% +- 2.68%
Numero de coeficientes: 6.00 +- 0.00
CCR de entrenamiento: 96.79% +- 0.71%
CCR de test: 93.16% +- 2.68%

==> iris_l1n/iris/res_iris_r0.05_o1_e0.00001_classificacion_l2.txt <==
MSE de test: 0.019404 +- 0.007702
CCR de entrenamiento: 96.79% +- 0.71%
CCR de test: 94.74% +- 2.88%
Numero de coeficientes: 6.00 +- 0.00
CCR de entrenamiento: 96.79% +- 0.71%
CCR de test: 94.74% +- 2.88%

==> iris_l1n/iris/res_iris_r0.05_o1_e0.0001_classificacion_l2.txt <==
MSE de test: 0.021993 +- 0.008586
CCR de entrenamiento: 96.43% +- 0.56%
CCR de test: 94.21% +- 2.58%
Numero de coeficientes: 6.00 +- 0.00
CCR de entrenamiento: 96.43% +- 0.56%
CCR de test: 94.21% +- 2.58%

==> iris_l1n/iris/res_iris_r0.05_o1_e0.001_classificacion_l2.txt <==
MSE de test: 0.025681 +- 0.009989
CCR de entrenamiento: 96.25% +- 0.36%
CCR de test: 93.16% +- 2.68%
Numero de coeficientes: 6.00 +- 0.00
CCR de entrenamiento: 96.25% +- 0.36%
CCR de test: 93.16% +- 2.68%

==> iris_l1n/iris/res_iris_r0.05_o1_e0.01_classificacion_l2.txt <==
MSE de test: 0.028953 +- 0.010837
CCR de entrenamiento: 95.36% +- 0.67%
CCR de test: 93.68% +- 3.16%
Numero de coeficientes: 6.00 +- 0.00
CCR de entrenamiento: 95.36% +- 0.67%
CCR de test: 93.68% +- 3.16%

==> iris_l1n/iris/res_iris_r0.05_o1_e0.1_classificacion_l2.txt <==
MSE de test: 0.028802 +- 0.007812
CCR de entrenamiento: 90.00% +- 2.42%
CCR de test: 93.68% +- 3.16%
Numero de coeficientes: 6.00 +- 0.00
CCR de entrenamiento: 90.00% +- 2.42%
CCR de test: 93.68% +- 3.16%

==> iris_l1n/iris/res_iris_r0.05_o1_e1_classificacion_l2.txt <==
MSE de test: 0.039133 +- 0.003356
CCR de entrenamiento: 86.96% +- 3.46%
CCR de test: 93.16% +- 2.11%
Numero de coeficientes: 6.00 +- 0.00
CCR de entrenamiento: 86.96% +- 3.46%
CCR de test: 93.16% +- 2.11%
