Inicio de las ejecuciones: 2017-12-03_19:51:34
	Inicio de las ejecuciones de nomnist: 2017-12-03_19:51:34
		r:0.05 o:1 e:1 clasificacion l2 : 2017-12-03_19:51:39
		r:0.05 o:1 e:0.1 clasificacion l2 : 2017-12-03_19:51:43
		r:0.05 o:1 e:0.01 clasificacion l2 : 2017-12-03_19:51:47
		r:0.05 o:1 e:0.001 clasificacion l2 : 2017-12-03_19:51:52
		r:0.05 o:1 e:0.0001 clasificacion l2 : 2017-12-03_19:51:57
		r:0.05 o:1 e:0.00001 clasificacion l2 : 2017-12-03_19:52:01
		r:0.05 o:1 e:0.000001 clasificacion l2 : 2017-12-03_19:52:06
		r:0.05 o:1 e:0.0000001 clasificacion l2 : 2017-12-03_19:52:11
		r:0.05 o:1 e:0.00000001 clasificacion l2 : 2017-12-03_19:52:15
		r:0.05 o:1 e:0.000000001 clasificacion l2 : 2017-12-03_19:52:20
		r:0.05 o:1 e:0.0000000001 clasificacion l2 : 2017-12-03_19:52:25
	Fin de las ejecuciones de nomnist: 2017-12-03_19:52:25
Fin de las ejecuciones 2017-12-03_19:52:25
