-----------
Semilla: 10
-----------
Número de RBFs utilizadas: 45
Coeficientes (sesgo al final):
[[  1.41669944e+01   1.73462334e+01  -4.74757025e-01  -5.07166571e+01
   -2.29941116e+01   1.70895143e+01   2.67973594e+01  -4.57072078e+00
    8.19422012e-01  -2.38017895e+01   5.12135290e+00   3.42588895e+01
   -4.65812835e+00   5.35861301e+00  -9.33630254e+00  -8.80813404e+00
   -4.62570705e+00   5.58931484e+00  -2.30389179e+01  -2.92325933e+00
   -1.38702658e+01  -1.26103281e+00   1.75294596e+00  -7.83669634e+00
    2.13580174e+01   1.84923006e+01   3.75881298e+00   7.22539277e+00
   -2.80404534e+01   1.94936570e+00   3.68558147e+01  -1.31288622e+00
    1.42018767e+01  -3.39546650e+01  -9.57037417e-01  -8.22807005e+00
    7.00003102e+00   2.94944499e+01   3.56945817e+00  -2.54149318e+01
    1.11982704e+01   2.56476848e+00   1.34689419e+01  -1.51602486e+01
    5.17102874e+00  -3.05917158e+00]
 [ -7.73274480e+00  -1.57121918e+01  -5.02652982e-01   1.17684674e+01
   -2.35761075e-01   9.75529646e-01  -4.70006310e+00   3.56508481e-01
   -2.28288027e+00  -4.15290463e+00  -5.21281559e+00   2.29342359e+00
   -1.42377800e+01  -7.91901590e+00   2.14379655e+00  -1.53431170e+00
    1.37370778e+01  -1.02739895e+01   1.78767444e+00  -1.99801832e+01
    1.78762676e+01  -1.69537117e+01  -2.66496261e+01   4.06871311e-01
    7.06021591e+00  -1.57692981e+01  -1.75507118e+01   2.96756393e+00
    6.09000279e+00   1.75373256e+00  -1.11400660e+01   5.60010834e+01
   -1.96462213e+01   6.55174715e+00  -3.42190348e+01   5.54851339e+00
    6.84877231e+00  -1.90684983e+01   1.92275259e+00   1.26498961e+01
    5.74532721e+00  -1.97222838e+00   9.72120465e+00   2.38232819e+01
    2.10682857e+01   4.71300436e-01]
 [ -2.91931632e+01  -4.37103340e+01  -1.68208255e+01  -1.65910252e+01
    2.66572151e+01  -3.50550046e+01  -1.54399641e-01   2.85903205e+01
    1.07575264e+01   3.27320211e+00   3.55183132e+00   2.43637209e-02
   -2.17848594e+00  -3.01383848e+01   2.37607914e+00  -3.04269074e+01
   -4.86288556e+00  -2.38776632e+01   3.81965832e+00   1.46099210e+01
    8.36895722e+00   6.41477742e+01  -3.39898820e+01  -2.76903260e+01
    2.41711775e+01   5.25539470e+00   8.28221723e-01   2.47446343e+01
   -1.01933133e+01   2.06862793e+01   1.39880851e+01   2.75247142e+00
    1.05447225e+00   3.95929480e+01  -3.28983130e+00   3.20937715e+00
    2.42445662e+01  -1.34529601e+00   3.76540095e+00   1.11004663e+01
    1.68813043e+01   2.14040907e+01  -1.02724747e+00  -3.78622100e+01
   -7.00504531e+01  -1.48272963e+00]
 [ -4.86415549e+00   3.25831377e+00   7.03326993e-01  -5.81374229e-02
   -8.32117368e+00   3.50410397e+00  -2.85492763e+01  -9.13121809e+00
    6.45766326e+00   7.10439321e+00   1.35332509e+01   1.15879755e+00
   -1.05241820e+01   1.90736889e+01  -1.74837929e+01  -7.19506538e+00
    1.06045093e+01   1.48697246e+01   1.18904976e+01   6.52970639e+00
    1.24058732e+00  -4.74252354e+01   2.22722512e+01   1.17248546e+01
    3.92677058e+00   5.41345857e+01  -2.86166165e+01  -4.69005197e+01
   -1.72097971e+01   3.95731564e+01  -4.21310769e+01  -5.46780960e+01
   -1.11479093e+01   3.72008530e+01   7.04711057e+01  -3.76507633e-01
   -2.08277177e+00  -7.13048369e-01  -2.68660286e+00   9.32617664e+00
    4.07612723e+01   4.73040542e-01  -8.14232205e+01  -2.16355543e+01
   -2.16582216e+01  -2.62756002e-01]
 [ -1.84987864e+00  -5.01682627e+00   1.60641177e+01   1.76059429e+01
    9.87482953e+00  -9.71419374e+00  -6.52740810e+00   2.57233364e+00
    7.38772039e+00   4.85527963e-01   1.81798751e+00   6.35930052e+00
   -5.66301665e-01  -3.34172750e+01   1.02366938e+01   5.15626768e-02
   -1.06856160e+00  -5.78991852e+01  -1.13732709e+00   2.79162714e+01
    5.72270521e+00  -1.96324631e+01  -6.94244909e+00   1.83923446e-01
    5.09007380e+00  -1.87073788e+01   1.03977473e+01   4.55502992e+00
    1.34105813e+00   7.68356830e+00  -7.18997767e+00  -3.72470811e+01
    1.37838198e+01  -1.30174021e+01   1.51797535e+01   3.06086920e+00
   -5.21081164e+00  -1.29995869e+01   1.23194514e+01   1.64834510e+01
   -1.64647032e+00   7.49549672e-01   2.30035347e+01   2.87039888e+01
   -6.26497546e+00  -1.86018665e+00]
 [  6.35644814e+01  -2.64813161e+01  -1.04053764e+01  -9.30140808e+00
   -8.38623128e+01  -1.56356192e+01   1.09573903e+01  -2.85871258e+00
    4.77504016e+00   7.52530005e-01  -1.02648906e-01   4.80189753e+00
    8.43573899e+00   2.46236590e+01   3.39432079e+00   9.88757363e+00
    2.53323656e+01  -5.85769069e+00   1.68999143e+01  -1.04658891e+01
   -1.01460948e+01  -1.76945312e+01   9.31866589e+00   2.27803925e+01
   -4.62371208e+01   1.06989340e+01  -5.04853155e+00   9.15821146e+00
    1.00141833e+01   8.38446427e+00  -1.32536400e+01  -2.90333621e+01
    1.19561150e+01   1.94597772e+01   1.34937840e+01   2.29114263e+01
   -3.60299654e+01  -1.48462164e+00  -4.16234117e+01  -1.21624563e+01
    1.17622970e+01  -4.12863122e+00  -1.20810482e+01  -2.70343306e+01
    3.04477044e+00   5.67975708e-01]]
MSE de entrenamiento: 0.028827
MSE de test: 0.029758
CCR de entrenamiento: 88.33%
CCR de test: 89.00%
Numero de coeficientes: 46
Matriz de confusion: 
[[46  0  1  0  2  1]
 [ 1 45  0  2  2  0]
 [ 1  0 46  0  1  2]
 [ 1  7  0 41  0  1]
 [ 0  2  2  0 44  2]
 [ 2  2  1  0  0 45]]
-----------
Semilla: 20
-----------
Número de RBFs utilizadas: 45
Coeficientes (sesgo al final):
[[  8.15696209e+00   2.19702990e+01   1.01294926e+01  -2.13595323e+01
   -6.99215282e+01  -8.32315443e+01   6.38230654e+00  -8.73577250e+01
   -2.25363001e+01   3.47878400e+01   3.09467407e+01  -3.73405452e+00
    2.23388850e+01  -3.01157673e+01  -2.04069950e+00   7.92505242e+00
    9.23118404e+00   1.34653343e+01   3.94254074e+01   2.77905514e+01
    4.09255688e+01   5.49391886e+00   1.34483347e+01   2.49627920e+01
    1.88486581e+00   4.47623043e+00  -5.78770731e+00   6.08102600e+00
   -1.55677117e+00   1.73457924e+01  -1.45734235e+01  -3.99376507e+01
    2.66447965e-02   3.50643294e+01  -2.94519426e+01  -4.05749721e+01
   -2.70426164e+00   7.07728288e+01   2.00919725e+00  -9.47304117e+00
   -5.53891392e+01   3.19155112e+01  -2.46222042e+01   2.26437623e+01
    7.39034616e+00  -2.87165907e+00]
 [ -1.69301543e+00  -1.70731600e+00  -1.54913619e+01  -5.44911181e+01
   -1.54064669e+01   1.81446385e+00   4.83879779e+00   1.02518373e+01
   -5.40439899e-01   1.06521101e+01   4.11252196e+00   1.55956880e+01
   -3.66466500e+00   2.41708656e+00  -6.94692365e+00  -2.91945078e-01
   -1.77596573e+01   1.82009567e+01   6.02560135e+00   9.01099267e+00
    6.35845139e+00   3.84487639e+00  -1.11671436e+01  -2.00430805e+00
   -4.83473413e+00   2.86961310e+00  -1.19795794e+01   2.72349494e+01
   -8.93300031e+00  -2.10268804e+01  -1.02300702e+01  -7.52113895e+00
    2.63021728e-01  -1.37907380e+01   2.23164587e+01  -1.62592631e-01
   -1.02611216e+00  -1.75684430e+01   2.67440157e+00   4.07747391e+01
   -1.03690977e+01   3.38890329e+00   1.01959429e+01  -1.65878676e+01
    3.40548245e+00   6.24890038e-01]
 [  1.01099905e+01  -9.89945671e+00   6.86939908e+00   3.67512703e+01
    2.15508334e+01  -1.82173311e+01  -2.66293967e+01   3.04454406e+00
    1.46926983e+01  -1.32643200e+01  -1.40161794e+01  -1.83963191e+01
    1.80978016e+00  -1.74925593e+00   1.36790666e+01   7.00102941e+00
    1.50207933e+01   9.28529377e+00   2.82103404e+01   3.57970776e+00
   -1.22406825e+01   6.11302355e-01  -1.02864190e+01   8.99074553e-01
    7.34867570e+00  -7.97844750e+01   1.62787129e+01   1.98290823e+01
   -2.25583407e+01   2.89405823e+00  -1.27352875e+00  -1.62090450e+01
   -1.82004057e+01   5.22358212e+00   3.34444848e+01   8.51447604e+00
   -2.96816554e+01   1.32342738e+01   5.27558753e+00  -4.47211650e+01
   -1.92187524e+01   6.99396323e+00  -1.82596974e+00   2.46145133e+01
   -4.75486607e+00  -6.45510063e-01]
 [  6.76316969e+00   1.71281422e-01  -1.07553082e+01  -6.46947871e+00
    1.69875614e+01   2.93739925e+01  -1.50709892e+01  -4.61445305e+00
    2.13643863e+01  -1.83985863e+01   4.94876685e+00   1.55662599e+01
   -1.63233630e+00   3.15760125e+01  -1.48250898e+01  -1.18008662e+01
   -3.35323289e+01   8.81150989e+00  -5.48574381e+01  -2.08819711e+01
    1.07144765e+01  -4.06769422e+01   5.06423050e+00   3.07653102e+00
    1.31468237e+01   6.21468254e+00   3.33768814e+01  -6.55103095e+01
    1.04656365e+01  -7.13801555e+00   7.53723934e+00   1.76192724e+01
    2.36259953e+01  -1.47416422e+01   4.34237921e+01   1.14233202e+01
   -3.27644517e+01  -2.83028319e+01  -6.31911725e-01  -3.79773046e+01
    5.40974145e+01   4.05651560e+00  -4.41180598e+00   1.91502261e+01
   -3.88604316e+01  -7.83463703e-02]
 [ -1.74264905e+01   1.33376394e+01   1.11293940e+01  -3.37901850e+01
   -3.54538581e+01   8.30946940e+01   2.86716628e+00   9.26353852e+00
   -3.07382943e+00   4.34201558e+01   5.48845079e+00   4.01782147e-01
    4.67006032e+00  -2.03070525e+00   8.79894196e+00   1.77848681e+01
    1.59142997e+01  -1.92740752e+01  -2.70453949e+00   2.61368636e+01
   -4.37014681e+00   1.77033575e+01  -3.45006800e+01  -1.09472006e+00
    5.17605253e+00  -6.87906729e+01  -2.51115029e+01  -2.96539745e+00
    2.21466898e+01  -3.92826242e+00   5.73122449e+00  -4.90713051e+01
   -2.05188193e+01   5.73563159e-01   9.98445413e-01  -1.81331363e+01
    5.49138168e+01  -3.96358311e+01  -8.48719772e+00  -1.12477392e+01
    1.04541661e+01  -7.93711450e+00  -8.70231371e+00   1.42898817e+01
    1.05030551e+01   4.53292445e-02]
 [  6.67689132e+00  -1.51086388e+01   2.66018604e+00   1.31969949e+01
    4.09360750e+01  -4.71549496e+01   9.95705058e+00  -1.51589781e+01
    1.06567520e+01   9.48969994e+00   1.31995676e+01  -7.61961494e+01
   -8.40312807e+00  -9.57933874e+00   3.15600115e+00   2.16287652e+01
    9.12836195e+00  -1.71642079e+00   2.56634479e+01  -2.80956100e+01
   -1.40550728e+01   2.26783551e+01  -1.03988405e+01  -1.63947780e+01
    2.19300084e+01   2.47845983e+01   8.40896258e+00   9.94184496e+00
   -3.54695341e+00  -6.17537426e+01  -4.04425251e+01   1.85709410e+00
   -2.71726433e+01   5.59477418e+01   7.07605212e+00  -8.37350349e+00
   -2.05529510e+00   4.30062081e+00   2.42101592e+01  -9.37059394e+00
    3.63791841e+00  -2.99297285e+01   4.99731928e+00  -6.42088693e+00
   -6.96576392e-02  -2.22291916e-01]]
MSE de entrenamiento: 0.028890
MSE de test: 0.028954
CCR de entrenamiento: 88.22%
CCR de test: 88.33%
Numero de coeficientes: 46
Matriz de confusion: 
[[44  4  0  1  1  0]
 [ 3 43  0  2  1  1]
 [ 0  0 46  0  2  2]
 [ 1  4  0 45  0  0]
 [ 0  0  2  0 44  4]
 [ 3  2  0  0  2 43]]
-----------
Semilla: 30
-----------
Número de RBFs utilizadas: 45
Coeficientes (sesgo al final):
[[ -9.63927242e+00  -5.69805543e+01   4.86128427e+01   3.21900290e+00
   -5.96717520e+00  -2.52019066e+01   1.25026393e+01   1.37029789e+00
   -7.23607930e+00   1.92608894e+01   1.04793296e+01  -2.05214171e+01
    1.60103435e+01  -1.47815778e+01  -1.58880109e+01  -1.80350341e+00
   -1.87609209e+01   3.73731202e+00   1.03016099e+01   1.06984397e+00
    4.53110221e-01   1.22754603e+01   2.83188199e+00  -3.07427420e+01
   -9.57461626e+00  -4.04230070e+00   1.91671901e+01   1.44797813e+01
    5.89799789e+00   1.32542045e+00   6.64377121e+00   1.16933203e+01
   -3.14715960e+01  -2.49556501e+00  -6.82544487e+01   1.88680428e+01
    9.10551820e+00  -3.29984094e+01   6.27078914e+00  -2.54840439e+01
    1.95318468e+01   4.02010847e+01   2.08484373e+01   8.98611248e+00
    3.43707130e+01  -1.76679177e+00]
 [  2.14315884e+00  -2.69482851e+01  -6.22361575e+00   9.13580563e+00
    2.68342367e+01   7.71431958e+00  -1.44798149e+01  -1.92471413e+01
   -5.91832634e+01   1.79901316e+00   4.85618274e+00   6.45485369e+01
   -5.44117868e+00   2.43828343e+01  -1.05811998e+01  -8.68827260e+00
   -4.12612242e+00   1.57929248e+01  -1.13741487e+01  -1.06858235e+01
    5.81297349e+00   5.22542472e+01  -2.99678580e+00   1.71323024e+01
   -6.69845079e+00  -2.18790876e+01   1.27901094e+01   7.72344717e+00
   -3.63918048e+01   5.72006953e+01  -4.03497228e+00  -3.38210120e+01
    7.46278814e-01  -4.34057341e+00  -2.39249600e+01  -1.27586928e+01
   -1.19838833e+01   5.39080401e-01   1.01109338e+01   1.56059238e-01
   -1.12950152e+01  -4.00900094e+01   2.39782918e+01  -1.54769820e+01
   -7.72505824e+00   1.41771139e+00]
 [  2.78647168e+01  -7.21314614e+00  -2.34695779e-02  -2.82064229e+00
   -9.18046229e+01  -3.63944355e+01  -4.51860894e+01   6.99763698e+01
   -2.15889091e+01   7.48259821e+00   9.12114382e+01  -1.00975543e+02
   -5.80955856e+01  -3.94009321e+01   1.57179239e+01   4.12190182e-01
   -4.09355229e+00  -1.72531008e+01   1.55712056e+01  -4.24208656e+01
   -1.29418644e+01  -9.75752418e+00  -1.07041822e+01   2.49673174e+00
   -2.99878004e+00  -5.67622393e+01  -4.56700601e+00  -1.21026291e+01
    8.83332724e+01   3.94628482e+01  -8.68831614e+00   4.83676014e+01
    3.72796755e-01   8.40987599e+00   2.92244453e+01   7.41653522e+01
    1.43268592e+01  -4.13995159e+01   1.42030368e+01  -2.59788993e+00
   -6.45323506e+00  -3.26672792e+00  -1.06453619e+01   1.24226834e+01
    6.04564520e+00   8.93473621e-01]
 [  1.58525425e+01   8.61784181e+00  -2.15666247e+01  -1.18161030e+01
    7.35141254e-01   1.60517068e+00   1.31039985e+01  -2.53924156e+01
   -2.22788396e+01  -9.80720844e+00   5.37429712e+00  -2.95017200e+01
   -2.53652688e+01  -2.57400044e+00  -9.15657415e+00   7.75427524e+00
    9.41205189e+00   1.23750456e+01  -5.93412132e+00   1.06348284e+01
    2.22657384e+01  -3.03049925e+01   5.63675221e+00  -1.35844592e+01
    1.57854654e+01   2.12638560e-01   6.53148583e+00  -1.33075154e+01
    1.94726549e+01   1.30869186e+01  -3.42280299e+01  -1.49680463e+00
    4.05361372e+01   1.30182660e+01   1.78107800e+01  -9.84467737e+00
   -1.77540155e+00   9.79974207e+00  -5.91719271e+01   1.29793099e+01
    2.24617011e+01  -1.77419777e+01  -2.57052927e+00   1.86563457e+00
   -2.05499854e-01   1.75009223e-01]
 [ -9.30993996e-01  -2.42897021e+00  -2.08554050e+00   2.42845306e+00
   -2.76905707e+01  -5.38360399e+00  -1.75890738e+02  -2.43439336e+01
    6.30371898e+00  -1.91343888e+01  -2.14037334e+00   3.43696535e+01
   -1.34220415e+01  -1.20037144e+00   3.26098557e+00  -5.68325077e+00
    7.79164336e+00   4.86074930e+00   2.66801640e+00  -3.58608632e+01
    1.42782957e+01   1.36676929e+01   1.12447570e+01  -9.14939242e+00
    5.53326910e+00   3.06461069e+01  -6.37771143e+00   1.60448338e+00
   -1.98526915e+00   3.88655901e+01  -7.23577934e+00   4.34811527e+00
    1.76618283e+01  -2.51362806e+01   4.32982977e+01   4.92993546e+01
    2.92153923e+01   2.59131153e+01   6.87216234e+00   1.30140716e+01
   -2.77299298e+01  -1.74020716e+01  -2.91952854e+00   5.97312453e+00
   -4.36413835e+00   2.81550457e-01]
 [  1.34591200e+01   8.25962741e+00  -1.73599943e+01   2.58609364e+01
   -3.15560802e+01   6.30807479e+00   3.29782456e+01  -2.59540502e+00
   -5.19121713e+01  -3.23806365e+01   2.88816799e+01  -4.65003463e+01
    1.01850195e+02  -8.71135757e+00   3.98698434e+00   1.50183772e-01
    5.76115753e-01   2.71693073e+01   6.81078321e+00   9.57216338e+00
    2.73142836e+01  -2.48970480e+00   1.68028293e+01   9.86308722e+00
    1.15542036e+01  -3.69832176e+01   5.00313526e+00   2.44191068e+00
    2.41916749e+01   1.22751073e+00   6.14710052e+00  -4.93899545e+01
   -1.72590403e+01  -2.78545816e+01  -6.96413032e+01   1.85114124e+01
   -4.11913658e+01   9.58478185e+00  -1.96199402e+01  -2.26332940e+01
   -8.39060466e+00   8.76039091e+00   1.09810507e+01   1.19590971e+01
    2.31280839e+00  -1.99925796e+00]]
MSE de entrenamiento: 0.028201
MSE de test: 0.032564
CCR de entrenamiento: 89.44%
CCR de test: 87.67%
Numero de coeficientes: 46
Matriz de confusion: 
[[43  3  1  0  0  3]
 [ 1 46  0  2  1  0]
 [ 0  0 46  0  2  2]
 [ 2  4  0 44  0  0]
 [ 2  3  1  0 41  3]
 [ 3  2  1  0  1 43]]
-----------
Semilla: 40
-----------
Número de RBFs utilizadas: 45
Coeficientes (sesgo al final):
[[  1.30102714e+01   1.12809187e+01  -3.95755177e+00  -1.43639808e+01
    4.07950468e+00   4.07767600e+00   7.32980282e+00   8.63201889e+00
   -1.14720040e+01  -5.20153880e+01  -2.45768880e+01  -3.91147451e+01
   -1.50630994e+01  -1.30648757e+01   5.75273292e+00   1.90886921e+01
   -3.29670726e-02   1.12685364e+01  -4.67341384e+00   1.81098123e+00
    7.39397520e+00   4.39878518e+01   1.00915657e+01   2.86382632e+00
   -5.89582661e+00  -1.38413731e+01   9.09224149e+00   6.19089744e+00
    1.25717618e+01  -6.45138414e-01  -4.10231618e+00   1.30047996e+01
    1.47296568e+01  -6.70143943e+01   2.19754663e+01  -1.58859601e+00
   -3.01785804e+00  -5.22806700e-01   2.36327627e+01   4.09209755e+00
   -2.09103139e+01   2.09627900e+01   1.89189081e+00   1.54716650e+01
   -1.50627266e+01  -2.75380340e+00]
 [  1.17623401e+01  -7.37206006e-01   1.27578567e+01   3.57901583e+01
    1.47055799e+01   7.69067124e+00   2.58674388e+01   2.02155207e+01
    5.13363314e+00  -6.51570597e+01   1.32071524e+01  -4.90490112e+01
    1.17367400e+01   9.22290420e+00  -5.71539731e+00  -1.04468405e+00
   -1.03466808e+01  -4.79916062e+00  -3.81211621e+00  -2.25522307e+01
    3.52259314e+00  -2.03793825e+01  -1.04874438e+01   7.39269916e+00
    1.40329447e+01  -2.10066185e+01   1.22094618e+01   2.42666365e+01
    1.42202818e+01  -2.23749608e+01   2.13030305e+01  -2.39291853e+00
   -3.07803415e+01  -8.10532874e-01  -2.59178526e+00  -6.58778722e+00
    1.01409959e+01  -7.26249503e+01  -2.93757644e+01   4.12863876e+01
   -7.89447346e+00   4.23213815e+01   2.11572147e+00  -1.81568239e+01
   -1.50092880e+01   4.44303260e-01]
 [ -1.08042354e+01  -9.44470983e+00  -1.03960067e-01  -4.13050280e+01
    3.66073300e+01   7.37410870e+00  -6.81768274e+01   2.59490534e+01
   -4.39165396e+00  -3.30525238e+01  -1.16670047e+01   1.85691541e+01
   -7.29722972e+00   1.54214792e+01   1.38152354e+01   8.66705036e+00
    1.83719264e+01   1.36792026e+01  -1.90902972e+01  -1.71257544e+01
   -3.10001441e+01  -1.04190256e+00  -2.15281275e+01   8.01354771e+00
    1.11753767e+01   5.91218166e-01   1.09416194e+01   4.11571577e+00
   -3.35048810e+00   4.21095039e+00   1.61628919e+01   1.23387565e+01
   -3.68575895e+00   3.59187479e+01   9.71162309e+00   1.62381962e+01
   -1.88788750e+01   2.79249278e+01   1.01503176e+01  -2.28481301e+01
   -1.30852525e+00  -3.27379862e+01   7.20401395e+00   5.05417521e+00
   -1.82493023e+01  -9.71919450e-01]
 [  3.09835861e+00   2.72161429e+00  -1.22867904e+01  -3.73328575e+00
   -1.54870299e+01   1.44364914e+01  -3.66969757e+01  -4.13206083e+01
    3.01682130e+01  -2.06310961e+01   3.57046215e+01  -2.80661151e+00
    6.75200080e+00  -4.69856707e+00   7.09535376e+00   4.52697016e+00
    5.01026100e+00   2.62771320e+01   1.28461683e+01   2.54800314e+01
   -4.07523444e+01  -2.15968507e+01  -3.06614160e+00  -3.05742406e+01
    1.42221253e+00   6.61589100e+01  -2.37989468e+01  -6.99082159e-01
    5.51359126e+00   2.02315042e+01  -1.98585208e+00  -5.29760518e+00
   -1.49200960e+01   8.42481291e+00  -1.23876698e+00  -9.23686791e+00
   -6.32510243e+00   2.70819067e+01  -1.40194111e+01  -4.61312456e+01
   -3.84112186e+00   9.57337601e+00   1.64736747e+00  -4.33674939e+00
   -1.04735711e+01  -5.54297150e-02]
 [  2.61303787e+01  -5.84021504e+00   1.71605479e+01   3.85983100e-01
   -1.82911743e+01   2.04151057e+00  -2.82461140e+01   1.28942373e+01
   -7.39869975e+00   1.32017633e+01  -4.08616577e+00   1.50607725e+00
    1.31458216e+01  -1.26570760e+01  -1.01840897e+01   1.81691961e-02
   -2.14598144e+01  -1.62640331e+01  -4.62622614e+01   3.01731604e+00
    5.68038531e+01  -4.16388942e+00   1.17092837e+00   6.16637873e+00
    1.70536438e+01  -1.97383390e+01   5.64105810e+00  -4.43405982e+00
    9.36469501e+00  -8.30365899e+00   1.37247858e+01   4.49163742e+00
    2.25856684e+00   4.14636466e+01  -3.09888773e+00  -1.12875609e+01
   -9.38596957e+00  -4.49237540e+01  -2.30589266e+00   1.61005870e+00
   -4.49012223e+00  -1.11286933e+01  -4.71420676e+00   1.55701703e+01
    4.77256881e+00  -3.32100162e-01]
 [  1.27956625e+01  -1.25020426e+01   3.42463383e+00  -6.32260724e+01
    3.11179408e+01   1.32211415e+01   4.97011141e+01  -2.69159345e+01
    6.60672736e+00   1.23132211e+00   1.20167185e+01   5.87736490e+00
    3.86306838e+01  -4.35266252e+01  -6.13439465e+00  -1.82883869e+01
    3.06746117e+01  -5.53412766e+01  -3.84414282e+01  -5.11607053e+01
   -3.62587214e+01  -4.19239807e+00  -5.78987355e+00  -1.89981890e+00
   -5.85388445e+00  -3.63381133e+00   4.90628366e+00  -2.86885308e+00
   -3.36520727e+01   2.78707295e+01   1.97120700e+01   7.14315182e+00
    3.72924460e+01  -7.08421200e+01   2.57604812e+01   1.98882432e+01
    1.63037506e+01   1.15724114e+01  -1.47735401e+01  -6.54066200e+00
    2.97107756e+01   3.36198717e+01  -2.72871250e+01   1.10436393e+01
    3.93019030e+00  -2.55025796e-01]]
MSE de entrenamiento: 0.030270
MSE de test: 0.028315
CCR de entrenamiento: 87.89%
CCR de test: 89.33%
Numero de coeficientes: 46
Matriz de confusion: 
[[45  1  1  0  0  3]
 [ 3 44  0  2  1  0]
 [ 0  0 46  0  2  2]
 [ 1  4  0 45  0  0]
 [ 2  1  3  0 43  1]
 [ 3  1  0  0  1 45]]
-----------
Semilla: 50
-----------
Número de RBFs utilizadas: 45
Coeficientes (sesgo al final):
[[ -2.08046307e+00  -1.19609404e+01  -4.41380012e+00   1.19967535e+01
    1.24773875e+01   2.85456242e+01   1.75423715e+01  -4.81538684e+00
    4.67729489e+00   4.55899679e+00  -4.14000664e+00  -1.40614765e+01
   -2.83604734e+01  -8.28881918e+00  -1.18467672e+01  -5.30609508e+01
    3.05748192e+00   7.68263941e-01  -3.45622623e+00   1.12434977e+01
   -5.11579334e+00   8.51480613e+00   1.16584537e+00   5.34532043e+00
    4.38746072e+00  -9.83021279e+00  -6.85082859e-01   1.28036068e+01
    9.19496625e+00  -2.58321712e+01  -1.58191785e+01  -2.24385722e+01
    2.16308425e+01   4.02134569e-02   3.16583491e+01   9.46943182e+00
   -1.22014045e+01  -6.92066053e-02   2.09449847e+00   3.97810803e+00
    1.17164663e+01  -1.32588532e+00   1.46171183e+00  -4.52161707e+00
    4.34465165e+00  -1.54172873e+00]
 [  8.63591034e+00   4.02739376e+01  -3.00920892e+00  -1.13142069e+01
   -9.28233480e+01  -3.82274546e+01  -1.45776975e+01   2.91452853e+00
    1.42593842e+01   8.94632456e-01   5.58487813e+00   1.94635869e+01
    4.52598026e+00  -1.08200780e+01   2.01643603e+01   1.37746276e+01
   -1.38588692e+01   2.06401069e+01  -2.32332642e+01  -4.17477484e+00
   -8.58290617e-01  -4.92620077e-01   2.81061320e+01   2.74088808e+00
    2.86360767e+01   4.97603085e+00   7.87030645e+00  -2.00782125e+01
    1.50333276e+01  -2.84723784e+01  -1.43558530e+01   2.39858751e+01
   -2.47276823e+00   8.15235919e+00  -4.07564127e+01  -3.31161371e+00
    3.88940607e+00  -2.57059986e+00  -1.43231600e+00   3.91486277e+01
   -1.28480910e+01  -1.93019473e+01   6.63932787e+00  -7.38930371e+00
   -1.52593574e+00   1.02372812e+00]
 [  3.83892247e+00   7.40270611e+00   1.18559354e+01   5.02590112e-01
    2.75482041e+01  -5.67120196e+00  -4.86321785e+01  -4.99789078e+01
   -4.66052670e+00  -4.89166785e+00   4.06272745e+00   2.46442671e+00
    1.39214290e+01   4.98739785e-01   1.25304323e+01   3.65094158e-02
    1.01157575e+01  -4.38101974e+00   1.12378236e+01   7.72484658e+00
    9.92835074e+00  -7.98169816e+00   6.04567072e+01   1.64204305e+01
    2.90892423e+01  -8.03121303e+00   1.77673601e+00  -9.68862404e+01
    4.13721233e+00   1.58579681e+01  -3.57143840e+00   1.90376633e+01
    1.72461963e+01   2.47491305e+01   2.21156833e+01  -2.56161396e+01
    2.94961790e+01  -1.89478822e+01  -1.69449772e+00  -1.03636032e+01
    1.48419184e+01  -2.80005855e+01  -6.35223545e+01  -1.17684453e+01
   -5.77596523e+01   8.20336559e-01]
 [  3.78493759e+00   5.90144196e+00   1.27096005e+00   1.46767664e+00
   -1.46500797e+01  -4.53010064e+01  -5.99832401e+00   5.40997836e+00
   -2.39817284e+01   6.04706407e+00   8.98716267e-01   1.00298336e+01
   -9.24880428e+00   1.82859540e+01   6.76690461e+00   5.48640476e+00
    1.29202912e+01   4.11340036e+00   5.05630807e+01  -7.41367165e+00
    8.06762034e-02   1.05613972e+00   2.62882341e+01   2.30336575e+00
   -1.62589598e+00   4.76062166e-01  -2.38553941e+01  -1.50875071e+00
   -4.69528889e+01   2.17733886e+01   1.66218240e+01  -7.12824241e-01
   -7.13125068e+00   4.16466085e+01  -2.66107416e+01   8.13272141e+00
   -2.74230267e+01  -2.48561211e+01   1.28801396e+01  -6.70491456e+01
   -1.01154419e+01   2.85532308e+01  -2.80889803e+00   1.13977398e+01
    8.17615540e-01  -4.08744869e-01]
 [  1.46527157e-01   5.68694482e+01   1.88332909e+00   7.30581006e+00
    5.72993101e+00   6.07404037e+00   1.17656504e+00   4.23645481e+00
    1.13604253e+01   5.49626078e+00  -5.82803727e+00  -4.36980552e+01
    1.48713936e+01   4.58239626e+01  -1.25328425e+01   2.96779833e-01
   -1.98829702e+01  -9.01283880e+00  -2.88955505e+01   2.15186039e+01
    6.99320144e-01  -3.37431582e+00   3.61109819e+01  -2.76610672e+00
    6.47383048e+00   2.09492810e+00   5.06805556e+00  -2.39809488e+00
   -4.56128321e+01   6.21348183e+00  -1.40567160e+01   1.55526027e+01
    1.59777056e+00  -5.60264726e+00  -1.98165779e+01  -3.15124474e+01
   -1.78740482e+00   5.52745041e+01  -2.18127412e+01  -2.91515069e+00
    1.64282883e+01  -2.63755951e+00  -2.86068386e+01  -7.51932160e+01
    3.35854189e+00   7.77352725e-01]
 [  1.40297558e+00  -2.34481547e+01   6.60340388e-01   1.13478409e+00
   -3.68647323e+01   1.40506874e+01  -2.76495093e+01   1.60187086e+00
    1.35685153e+00  -2.57429549e+00   5.70084435e+00   2.11451556e+00
   -9.61278558e+00   8.26422460e-02  -1.96731944e+01   2.32966062e+00
    1.97482309e+01  -2.13873800e+01   1.05535219e+01  -5.55509984e+00
    1.09813154e-01  -7.04524383e+00   2.38761882e+01  -1.20921029e+01
    1.84263950e+00  -1.55819459e+01   1.25159895e+01   4.79211985e+01
   -9.27749207e+00   4.21436022e+00   1.72478741e+01  -3.87112530e+00
   -2.18252795e+01   1.29706880e+01  -9.85359301e+00   2.42555380e+01
    2.76692891e+00  -5.06969764e+01   5.22247381e+00   3.26655160e-02
   -1.40820250e+01  -1.43453208e+01  -8.75916372e-01  -7.34801220e+00
    1.24331572e+01   1.09447076e+00]]
MSE de entrenamiento: 0.029055
MSE de test: 0.031310
CCR de entrenamiento: 88.67%
CCR de test: 88.33%
Numero de coeficientes: 46
Matriz de confusion: 
[[43  3  1  0  1  2]
 [ 1 43  1  2  3  0]
 [ 1  0 46  0  1  2]
 [ 2  3  1 43  1  0]
 [ 0  1  2  0 45  2]
 [ 1  1  0  1  2 45]]
*********************
Resumen de resultados
*********************
MSE de entrenamiento: 0.029049 +- 0.000676
MSE de test: 0.030180 +- 0.001557
CCR de entrenamiento: 88.51% +- 0.53%
CCR de test: 88.53% +- 0.58%
Numero de coeficientes: 46.00 +- 0.00
CCR de entrenamiento: 88.51% +- 0.53%
CCR de test: 88.53% +- 0.58%
