-----------
Semilla: 10
-----------
Número de RBFs utilizadas: 45
Coeficientes (sesgo al final):
[[ 16.76736125  17.19371109  -0.55343368 -58.47585852 -28.31340676
   17.7391425   28.58882647  -4.89371436   1.16735593 -26.27829513
    4.87199022  36.82896517  -3.91636499   6.1744032   -9.99867633
   -9.02553498  -3.42479449   6.57282757 -24.39075498  -1.78212134
  -15.42951511  -1.77418406   1.8627992   -8.36870664  23.19839705
   21.68072146   4.74775099   8.01949202 -30.90413183   2.82168035
   37.7451775   -0.88064053  15.73839612 -37.72063885  -0.30069743
   -8.31017825   7.6118548   30.2923988    3.82491471 -25.54723995
   12.61249354   2.93349862  15.26194069 -17.3583334    5.95031797
   -3.15123284]
 [ -8.09983985 -16.02014011  -0.53901706  12.03930002   0.12576408
    0.98434473  -4.82123339   0.52944705  -2.33499105  -4.21877966
   -5.35110561   2.33272177 -14.41306196  -7.927177     2.27015229
   -1.55955287  13.76310172 -10.19527721   1.71390497 -20.65587407
   18.02781801 -17.33973734 -27.29790796   0.28080353   7.02362063
  -16.10976998 -18.26149505   3.31738128   6.11674218   1.96054325
  -11.24755178  57.15101549 -20.09544564   6.94710688 -34.91127672
    5.58967435   7.01742949 -19.45931422   1.92899647  12.66390386
    6.02416407  -1.99440042   9.94565077  24.44935     21.53979752
    0.49705053]
 [-31.6314822  -56.0445775  -18.95125037 -17.99555647  28.10535571
  -38.89791579  -0.84525848  33.99192408  12.92101888   3.81465144
    4.30907318   0.1023901   -3.43816149 -39.58803921   1.30578951
  -29.10063486  -4.98874078 -27.8358463    3.61755641  16.83999431
    9.58048557  69.98978044 -36.96974782 -31.13296952  29.81596126
    8.67971282   3.23639303  28.40971835  -8.37485858  23.15167438
   15.10712106   7.74413927   1.67596119  45.41549656  -4.95576931
    3.47172968  25.99760569   0.17953705   4.31890228  14.45167199
   19.49737112  23.12181164  -1.83757023 -41.86027707 -87.65515864
   -1.53578145]
 [ -3.45198316   5.06873904   0.94674938  -0.97202801 -10.63971761
    3.86387688 -31.7966474  -10.67825687   7.91775702   6.94198421
   14.77489174   1.58527428 -10.33932478  20.40425011 -20.8878655
   -7.44309014  11.41558264  14.27134014  12.59844432   7.84926815
    1.90921944 -52.34349759  25.61559626  12.67380212   4.76558204
   60.02758202 -30.90324986 -55.40162366 -20.28180036  43.14639546
  -44.45836164 -60.65682782 -12.22072076  46.19835511  79.57628677
   -0.87139288  -1.80518378   0.24949106  -3.12543371  10.06231595
   44.7244562    1.17187259 -95.70468329 -21.5107122  -25.32900666
   -0.24631878]
 [ -1.76574012  -5.07444957  16.36298481  18.17481421   9.83986281
  -10.0864814   -6.80224955   2.77274585   7.57099035   0.56945831
    2.16155123   6.57323695  -0.49947742 -34.69045156  10.35435817
    0.54440295  -0.51840704 -61.81367566  -1.02551418  28.26422176
    5.88413768 -19.59257547  -6.89710143  -0.1070996    5.23887642
  -19.06335831  10.48350333   4.67744589   1.41510886   7.48479732
   -6.77309095 -38.45948048  14.04501116 -13.12808718  16.44782079
    3.10451733  -5.30878985 -13.10115984  12.68655528  17.33831259
   -1.68307      0.85663625  23.240189    29.4617124   -6.48717043
   -1.90364581]
 [ 71.01618924 -28.38827284 -10.82744938 -11.97976333 -94.63677364
  -17.8810474   11.37272298  -0.87170781   5.68520767   0.79236417
    0.3460555    5.38642937  10.81984119  25.33879886   3.03973101
   10.27015983  28.44639208  -7.19161297  17.89921513  -9.24181118
  -10.81007045 -19.43178053   9.45842429  23.88587881 -51.68835607
   12.95845642  -5.53059348   9.56398868  11.47612982   8.85949445
  -14.75667076 -34.33180452  16.26806777  20.37585095  16.37879857
   24.53743165 -39.65613051  -0.86343998 -44.66657159 -10.94313884
   12.42579498  -4.55557405 -11.79507401 -30.6615177    3.87594416
    0.58630928]]
MSE de entrenamiento: 0.028586
MSE de test: 0.030051
CCR de entrenamiento: 88.44%
CCR de test: 89.00%
Numero de coeficientes: 46
Matriz de confusion: 
[[46  0  1  0  2  1]
 [ 1 45  0  2  2  0]
 [ 1  0 46  0  1  2]
 [ 1  7  0 41  0  1]
 [ 0  2  2  0 44  2]
 [ 2  2  1  0  0 45]]
-----------
Semilla: 20
-----------
Número de RBFs utilizadas: 45
Coeficientes (sesgo al final):
[[  1.05016341e+01   3.08511956e+01   7.55536685e+00  -3.53962215e+01
   -1.06097052e+02  -1.13892351e+02   9.43042203e+00  -1.17278896e+02
   -2.67411197e+01   4.55234440e+01   3.95348426e+01  -2.88900531e+00
    3.07375063e+01  -3.66337405e+01  -4.12507469e+00   1.03338813e+01
    1.31967039e+01   1.48711902e+01   6.38366220e+01   3.61085230e+01
    5.00837021e+01   9.63552639e+00   1.77242262e+01   3.13440513e+01
    8.60906656e+00   7.07186140e+00  -5.79987263e+00   7.83701063e+00
   -2.31529260e+00   1.38672588e+01  -1.32434588e+01  -4.72071035e+01
    8.90809525e-01   5.04018802e+01  -4.19492497e+01  -6.61397177e+01
    1.14862201e+01   8.84036872e+01   4.94919639e+00  -6.32381890e+00
   -8.18905540e+01   3.88733674e+01  -2.35658324e+01   2.84291749e+01
    1.36532187e+01  -3.34032154e+00]
 [ -1.63861714e+00  -1.74813481e+00  -1.57786664e+01  -5.77315361e+01
   -1.58542929e+01   1.96071166e+00   5.00168259e+00   1.03435718e+01
   -8.01102321e-01   1.05621036e+01   4.00500285e+00   1.55188552e+01
   -3.59004032e+00   2.48868142e+00  -6.99236921e+00  -4.93424325e-01
   -1.80491787e+01   1.85517752e+01   6.76125315e+00   1.00481778e+01
    6.34240168e+00   3.96882311e+00  -1.11559393e+01  -2.05024160e+00
   -4.70581242e+00   3.17150956e+00  -1.23063408e+01   2.74903531e+01
   -9.01625130e+00  -2.14764309e+01  -9.52139647e+00  -7.49939675e+00
    2.50350382e-01  -1.40051297e+01   2.28286723e+01  -3.27000287e-01
   -3.48683140e-01  -1.80838046e+01   2.69928789e+00   4.17754670e+01
   -1.06252368e+01   3.37410896e+00   1.05317485e+01  -1.71023688e+01
    3.53474369e+00   6.41183487e-01]
 [  1.07364902e+01  -1.14082885e+01   7.39157658e+00   3.82927777e+01
    2.55440632e+01  -1.73893015e+01  -2.95754874e+01   2.82368457e+00
    1.58635636e+01  -1.33182569e+01  -1.49954137e+01  -2.04194777e+01
    1.56213884e+00  -2.11885976e+00   1.45455279e+01   6.55124905e+00
    1.65774024e+01   1.15435761e+01   3.00744175e+01   3.49276944e+00
   -1.24218783e+01   4.60531887e-02  -1.05750557e+01   2.22361420e+00
    7.57924243e+00  -8.80552673e+01   1.78700800e+01   2.21312104e+01
   -2.48915819e+01   3.84118782e+00  -1.51925642e+00  -1.85094992e+01
   -1.91380537e+01   6.68098400e+00   3.56245555e+01   8.26045385e+00
   -3.29330838e+01   1.49839839e+01   5.29052444e+00  -4.97228409e+01
   -1.91811134e+01   7.79972664e+00  -2.12769215e+00   2.72795088e+01
   -5.58957584e+00  -6.34033702e-01]
 [  6.89764456e+00   1.06027236e+00  -9.43575068e+00  -4.73962010e+00
    2.24249526e+01   3.51635688e+01  -1.74833321e+01  -2.15713576e+00
    2.19635137e+01  -2.13715531e+01   4.79450011e+00   2.04573805e+01
   -1.44773895e+00   3.27730020e+01  -1.57706115e+01  -1.20584390e+01
   -3.68636391e+01   1.14039078e+01  -6.85797451e+01  -2.16396013e+01
    1.12471020e+01  -4.53656737e+01   4.25321762e+00   4.47357363e+00
    1.31329561e+01   6.75381745e+00   3.57792188e+01  -7.32799669e+01
    1.01241826e+01  -4.75777763e+00   9.13318287e+00   1.75593934e+01
    2.46717473e+01  -1.56592679e+01   4.83727986e+01   1.60612136e+01
   -4.05073328e+01  -2.98639799e+01  -8.88385011e-01  -4.18914205e+01
    6.18617758e+01   3.39127770e+00  -4.82288603e+00   2.13602735e+01
   -4.67964002e+01  -8.28641010e-02]
 [ -1.76035773e+01   1.31667090e+01   1.15560522e+01  -3.57088140e+01
   -3.65000629e+01   8.86521770e+01   2.51452898e+00   9.06861674e+00
   -3.20336777e+00   4.54424822e+01   5.67350594e+00   7.13180320e-01
    4.90825611e+00  -2.70119340e+00   9.24943882e+00   1.84590450e+01
    1.68139253e+01  -2.04036016e+01  -3.73552382e+00   2.82576663e+01
   -4.69436441e+00   1.86608370e+01  -3.58192936e+01  -8.14286533e-01
    5.89692681e+00  -7.32955233e+01  -2.60071021e+01  -2.90508295e+00
    2.40066592e+01  -3.94712934e+00   5.95155122e+00  -5.29553648e+01
   -2.21004986e+01   1.52902847e+00   1.64086501e+00  -1.86153254e+01
    5.71970692e+01  -4.33458627e+01  -8.63795848e+00  -1.23273563e+01
    1.19688548e+01  -8.12802448e+00  -9.39126137e+00   1.52681854e+01
    1.05756950e+01   9.83605646e-02]
 [  9.10643042e+00  -1.75066765e+01   4.00474138e+00   1.57446993e+01
    4.36752658e+01  -5.05902981e+01   2.27464125e+01  -1.81619838e+01
    1.32846428e+01   1.16160245e+01   1.49267005e+01  -9.25143281e+01
   -7.43815411e+00  -1.07590407e+01   3.03562985e+00   2.36595784e+01
    9.86331885e+00  -1.69162902e+00   2.98840076e+01  -3.38982373e+01
   -1.50619849e+01   2.64186287e+01  -1.06255120e+01  -2.46829921e+01
    2.59591976e+01   2.38112703e+01   9.25023713e+00   1.48858533e+01
   -3.55918068e+00  -7.63342722e+01  -4.44463644e+01   4.74457547e+00
   -3.06751635e+01   6.22018044e+01   6.39212536e+00  -1.00710212e+01
   -5.61905849e-01   4.84694023e+00   2.63479839e+01  -8.49991623e+00
    2.02717221e+00  -3.19193637e+01   5.66441993e+00  -5.92661316e+00
    1.40221169e+00  -2.99134514e-01]]
MSE de entrenamiento: 0.028534
MSE de test: 0.029250
CCR de entrenamiento: 88.56%
CCR de test: 88.33%
Numero de coeficientes: 46
Matriz de confusion: 
[[44  4  0  1  1  0]
 [ 3 43  0  2  1  1]
 [ 0  0 46  0  2  2]
 [ 1  4  0 45  0  0]
 [ 0  0  2  0 44  4]
 [ 3  2  0  0  2 43]]
-----------
Semilla: 30
-----------
Número de RBFs utilizadas: 45
Coeficientes (sesgo al final):
[[ -10.00436747  -67.28063224   51.24551496    5.6194726    -5.83978464
   -26.94031566   14.66007522    1.85807067  -10.29038732   21.22420113
    12.32113406  -22.81122527   17.8736676   -16.09169277  -19.00396078
    -2.00597343  -20.16184056    4.72452945   12.89797012    1.78707382
    -1.56632206   16.07798416    3.11756038  -35.27208106  -10.75519596
    -4.45304683   27.10284141   14.92967463    5.73174669    2.74422113
     6.46618666   15.10353821  -39.20346033   -3.34902212  -78.90673539
    20.58431588   10.04466392  -38.73763341    6.88377739  -27.0896903
    26.42506977   41.83512932   24.0176136     8.83579791   39.06735584
    -1.72213921]
 [   2.26346642  -28.13751664   -6.23015403    9.01850565   26.64825736
     7.31444167  -15.24270252  -16.99020777  -67.57089296    1.92665633
     5.64409679   69.66686656   -6.15798385   23.92587115  -11.43537426
    -9.03904968   -4.51889917   16.89086016  -10.73871638   -9.91341071
     6.36426726   58.33662407   -3.05452812   18.58869001   -7.08553634
   -24.00081186   13.84029683    8.47258974  -40.24742507   60.9242218
    -4.18943515  -36.98719759    0.9864584    -4.97487664  -26.51739914
   -14.24825762  -12.92887112    0.50187588   10.69984002    0.6964529
   -11.00999168  -43.26165762   26.9050706   -15.44561441   -7.98628832
     1.51121316]
 [  44.77214669   -6.64150077   -1.01566768   -1.19142412 -159.6522252
   -50.7113501   -67.01230696   96.17476755  -34.03365489   34.9594433
   145.51140709 -141.7032878   -69.06537683  -70.2175671    15.49193501
     3.47802635   -3.70780119  -25.40716494   29.04062579  -65.23847037
   -18.11732602  -14.74023909  -14.84394366   -1.67421155   -5.50844876
   -76.43076963   -4.16528079  -17.58464585  131.75093742   42.47445011
   -12.73521933   74.2176561     4.89419293   11.58695318   32.24608475
   105.43061194   27.37351509  -74.6015624    19.81315794   -2.24827264
   -12.46322557   -0.24141654  -17.92807099   24.21143746   11.2209867
     1.34804167]
 [  16.4733112     8.99982828  -22.28260698  -12.8490666     0.73694231
     1.45369104   13.0578457   -25.92631843  -23.30504071   -9.99658465
     6.57646481  -30.65590066  -26.18993015   -3.19989974  -10.08737137
     8.94772644   10.1654819    12.93662786   -5.14250795   11.02708739
    24.53429085  -34.35365767    5.8491647   -14.45949998   16.12539832
     0.65799396    7.52245217  -14.82263271   21.55278069   13.83108106
   -36.45991942   -1.02139615   41.91790611   12.97998198   18.67990345
    -9.41490681   -2.02107828    9.61081829  -64.29359806   14.35502741
    24.08399761  -18.4143112    -2.36561279    1.76570783   -0.53555645
     0.24042689]
 [  -0.37653082   -2.20831666   -1.8386578     2.72044017  -31.5862653
    -5.36573955 -199.96680088  -25.03663052    5.23112554  -21.82067596
    -0.76347412   39.09054848  -14.55150163   -1.30258321    3.927337
    -5.86914094    7.53953984    4.54979381    2.6008972   -38.3922453
    14.63451633   14.26831594   12.14837803  -10.13425705    5.46070988
    30.10578744   -7.22876035    1.58763271    0.34945767   41.65283064
    -7.75868724    6.9611508    19.80471224  -26.38124092   46.93173097
    56.49162815   33.74404468   27.64198281    6.60350571   13.0873004
   -28.12667852  -17.44851407   -3.2806814     7.0367694    -3.6497813
     0.3438957 ]
 [  17.55735274    8.81978536  -21.26570828   26.26649151  -38.26456766
     8.04298856   39.81931478    4.87457448  -57.96761948  -34.03438011
    33.72497872  -50.90296831  120.09485859  -11.51721106    1.91267303
     8.31343283    0.44953385   32.12471825    8.071641      8.97302536
    32.46223209    2.56757846   18.62864659   15.09203553   13.19059023
   -41.70246081    0.69390067   -0.44005971   26.49663332    3.13342997
     6.04542794  -78.62766759  -11.52922988  -33.71063731  -81.88805116
    19.86116711  -54.97517554   12.76171449  -18.68300332  -22.22888698
   -12.65676199    9.33237801   21.28189196   14.61195851    0.84292711
    -2.38257745]]
MSE de entrenamiento: 0.027702
MSE de test: 0.032817
CCR de entrenamiento: 89.78%
CCR de test: 88.00%
Numero de coeficientes: 46
Matriz de confusion: 
[[43  2  1  0  0  4]
 [ 1 46  0  2  1  0]
 [ 0  0 46  0  2  2]
 [ 2  4  0 44  0  0]
 [ 2  2  1  0 42  3]
 [ 3  2  1  0  1 43]]
-----------
Semilla: 40
-----------
Número de RBFs utilizadas: 45
Coeficientes (sesgo al final):
[[  1.68100324e+01   1.23792855e+01  -4.05973009e+00  -1.50493341e+01
    5.45138476e+00   3.66523669e+00   9.65941843e+00   8.77311331e+00
   -2.53386523e+00  -7.13582751e+01  -2.70412338e+01  -4.42124502e+01
   -1.48541327e+01  -1.31187308e+01   4.81673142e+00   2.03643492e+01
   -1.39563186e+00   1.66367950e+01  -4.16814068e+00   2.55702259e+00
    8.65800647e+00   4.65782566e+01   1.08788298e+01   2.62045158e+00
   -4.72721209e+00  -1.66880635e+01   1.03660780e+01   7.24058770e+00
    1.34315256e+01  -1.31024159e+00  -3.33626161e+00   1.39435258e+01
    1.62267975e+01  -7.90339219e+01   2.41626778e+01  -2.00428487e+00
   -1.89577958e+00  -3.28327710e-01   2.18757085e+01   5.23905154e+00
   -2.24433972e+01   2.60682554e+01   1.26912053e+00   1.65215694e+01
   -1.73726240e+01  -2.86379387e+00]
 [  1.26778875e+01  -6.29740692e-01   1.29488886e+01   3.80780838e+01
    1.57171533e+01   9.06201601e+00   2.98320850e+01   2.18153403e+01
    8.67564608e+00  -7.46212167e+01   1.28611791e+01  -5.33453665e+01
    1.22546366e+01   1.02250533e+01  -6.45951688e+00  -1.26834670e+00
   -1.06814627e+01  -3.56405772e+00  -3.39638633e+00  -2.33168218e+01
    4.71277394e+00  -2.13581416e+01  -1.14148046e+01   7.80043795e+00
    1.48764237e+01  -2.26307166e+01   1.46288996e+01   2.55241128e+01
    1.50378021e+01  -2.39783686e+01   2.29044062e+01  -1.86998605e+00
   -3.25175844e+01   5.17549385e-01  -3.06461453e+00  -6.65195658e+00
    1.01761558e+01  -8.45349989e+01  -3.11279284e+01   4.40478861e+01
   -8.35409709e+00   4.78138782e+01   2.74952183e+00  -2.03937126e+01
   -1.71473797e+01   4.78365598e-01]
 [ -9.71590291e+00  -9.00441132e+00  -1.12240137e-01  -5.00975094e+01
    4.41751852e+01   7.66563160e+00  -8.17124110e+01   2.81832819e+01
    1.74427532e+00  -4.70940331e+01  -1.18186041e+01   1.75558035e+01
   -5.18781692e+00   1.53217314e+01   1.47314053e+01   9.24846296e+00
    1.87258373e+01   1.64467905e+01  -2.08682194e+01  -2.23660095e+01
   -3.36948600e+01  -5.27621093e-01  -2.40714659e+01   8.38615263e+00
    1.23080467e+01   3.48173377e+00   1.32605455e+01   6.93178296e+00
   -3.73145198e+00   4.80661287e+00   1.57161597e+01   1.50368937e+01
   -4.19145251e+00   4.17275836e+01   1.25063309e+01   1.76116199e+01
   -2.10141050e+01   3.81274616e+01   1.10742915e+01  -2.90099810e+01
   -1.91991522e+00  -3.45947651e+01   7.65151569e+00   7.14169678e+00
   -2.19826138e+01  -9.92825724e-01]
 [  5.19559903e+00   2.92160469e+00  -1.31504036e+01  -3.18860169e+00
   -1.50293450e+01   1.53108734e+01  -4.25456282e+01  -4.34185717e+01
    3.69811269e+01  -2.87454592e+01   3.69013597e+01  -3.87720883e+00
    6.33211943e+00  -5.09522702e+00   7.12292691e+00   4.49482241e+00
    5.04794753e+00   2.97211032e+01   1.29878992e+01   2.68117960e+01
   -4.52259666e+01  -2.21553435e+01  -2.23000855e+00  -3.59207731e+01
    1.43878154e+00   7.10950745e+01  -2.57518176e+01  -1.63735272e+00
    5.69766961e+00   2.09352145e+01  -1.68879281e+00  -5.42553091e+00
   -1.67703865e+01   1.16390280e+01  -7.77780733e-01  -7.60497505e+00
   -7.48274190e+00   3.03541052e+01  -1.48431215e+01  -4.92161972e+01
   -4.60189234e+00   1.21827799e+01   1.58882028e+00  -3.64730035e+00
   -1.11436401e+01  -9.42136863e-03]
 [  2.64806803e+01  -5.98885733e+00   1.74768872e+01   4.93316195e-01
   -1.91458297e+01   2.40795404e+00  -2.84980616e+01   1.33504095e+01
   -7.42765962e+00   1.34280316e+01  -4.37598369e+00   1.51519156e+00
    1.41363828e+01  -1.28282641e+01  -1.07105993e+01  -1.00645947e-01
   -2.18661592e+01  -1.68963183e+01  -4.87818684e+01   3.42724429e+00
    5.84857891e+01  -4.12244667e+00   1.23765542e+00   6.12127086e+00
    1.76213749e+01  -2.01681743e+01   5.82622992e+00  -4.48736174e+00
    9.48114132e+00  -8.39928615e+00   1.41238340e+01   4.51899655e+00
    2.37755988e+00   4.23185146e+01  -3.30851622e+00  -1.14214691e+01
   -9.11621203e+00  -4.65913088e+01  -2.05795490e+00   1.62376151e+00
   -4.59535976e+00  -1.12801161e+01  -4.81064178e+00   1.59327325e+01
    4.76075448e+00  -3.19904212e-01]
 [  1.24291278e+01  -1.15313511e+01   8.51404840e+00  -8.14189214e+01
    3.88419558e+01   1.33624438e+01   5.52386384e+01  -3.18209374e+01
    7.59773870e+00   2.04343609e+00   1.04082625e+01   1.03156615e+01
    5.35141289e+01  -5.56490283e+01  -8.20835949e+00  -1.92583528e+01
    3.85341439e+01  -7.25942404e+01  -5.02405431e+01  -7.49247882e+01
   -4.10011849e+01  -3.78198325e+00  -3.52813276e+00  -2.53310879e+00
   -6.22056767e+00  -1.24046184e+00   4.21163973e+00   8.22218249e-01
   -3.86483343e+01   3.56533074e+01   2.35797057e+01   9.19770491e+00
    5.27040581e+01  -8.02708288e+01   3.14567910e+01   2.12525027e+01
    2.04000841e+01   1.37018434e+01  -1.55329967e+01  -4.55674108e+00
    3.45016964e+01   3.85978473e+01  -3.21566804e+01   1.42783364e+01
    3.28763582e+00  -4.14214869e-01]]
MSE de entrenamiento: 0.029908
MSE de test: 0.028556
CCR de entrenamiento: 88.22%
CCR de test: 89.67%
Numero de coeficientes: 46
Matriz de confusion: 
[[46  0  1  0  0  3]
 [ 3 44  0  2  1  0]
 [ 0  0 46  0  2  2]
 [ 1  4  0 45  0  0]
 [ 2  1  3  0 43  1]
 [ 3  1  0  0  1 45]]
-----------
Semilla: 50
-----------
Número de RBFs utilizadas: 45
Coeficientes (sesgo al final):
[[ -2.23654873e+00  -1.43210494e+01  -4.07004563e+00   1.20347540e+01
    1.40941239e+01   3.10639881e+01   1.75368033e+01  -4.32834744e+00
    5.32228487e+00   4.88073660e+00  -4.03838705e+00  -1.43070584e+01
   -3.05625239e+01  -8.36499340e+00  -1.35073685e+01  -5.82250249e+01
    3.62022880e+00   1.22754753e+00  -3.82108052e+00   1.21387970e+01
   -5.07206677e+00   8.65291332e+00   1.45626147e+00   5.53726023e+00
    5.09026253e+00  -9.74779326e+00  -3.36076616e-02   1.38576710e+01
    1.02795949e+01  -2.73866580e+01  -1.76248406e+01  -2.36044153e+01
    2.22846768e+01   1.20874838e-01   3.24925738e+01   1.03001213e+01
   -1.28692468e+01  -8.44710745e-02   2.30529445e+00   4.34792525e+00
    1.29746478e+01  -1.02245065e+00   1.55215410e+00  -4.74746092e+00
    4.39118046e+00  -1.59867855e+00]
 [  8.97709746e+00   4.63630302e+01  -3.10096399e+00  -1.13231768e+01
   -1.13106743e+02  -4.30343408e+01  -1.52834380e+01   2.56391222e+00
    1.43380054e+01   7.42903431e-01   5.32025328e+00   1.85898045e+01
    5.65270304e+00  -1.06065048e+01   2.98094799e+01   1.43853720e+01
   -1.37410935e+01   2.09267365e+01  -2.48079207e+01  -4.76762523e+00
   -9.65704168e-01  -8.19088053e-01   2.95563375e+01   3.29008002e+00
    3.07177089e+01   5.16897879e+00   8.02773094e+00  -2.14343505e+01
    1.75122276e+01  -2.86457589e+01  -1.40871311e+01   2.43341299e+01
   -2.02669779e+00   1.02531039e+01  -4.27881654e+01  -3.39561318e+00
    4.81712263e+00  -2.66527371e+00  -1.61977454e+00   4.14296849e+01
   -1.22990961e+01  -2.04529199e+01   6.55649085e+00  -8.02373605e+00
   -1.88442744e+00   1.12820173e+00]
 [  4.83875340e+00   1.00145450e+01   1.32947342e+01  -3.78975208e-01
    3.23721836e+01  -6.56073801e+00  -5.75112034e+01  -6.33038999e+01
   -5.19214049e+00  -5.34265633e+00   4.78021997e+00   4.79831992e+00
    1.59800990e+01   1.73076675e-01   1.20156506e+01  -6.37512993e-01
    9.03036814e+00  -3.11805772e+00   1.59889740e+01   9.33315156e+00
    1.07322960e+01  -7.23022156e+00   6.92678386e+01   1.88265553e+01
    3.45771330e+01  -8.41801165e+00   2.29009892e+00  -1.11679938e+02
    7.99051806e-01   1.81265532e+01  -2.43295095e+00   2.05562278e+01
    2.04407508e+01   2.74614237e+01   2.58750068e+01  -2.78762333e+01
    3.45028753e+01  -1.93357902e+01  -1.59507558e+00  -1.07910179e+01
    1.77954826e+01  -3.54776625e+01  -7.47236177e+01  -1.09042386e+01
   -6.57468920e+01   1.11664776e+00]
 [  3.75330382e+00   7.55440210e+00   1.29797157e+00   1.43345388e+00
   -1.60049418e+01  -4.77918213e+01  -6.34114070e+00   7.41468818e+00
   -2.47790045e+01   6.36268580e+00   8.74447193e-01   1.17865796e+01
   -1.00806641e+01   1.84800432e+01   8.24276338e+00   6.50693901e+00
    1.36425613e+01   3.42133303e+00   5.44034967e+01  -8.10912395e+00
    1.12832215e-01   7.85183167e-01   2.73178678e+01   2.97917250e+00
   -2.84205805e+00   5.05810794e-01  -2.56952605e+01   1.28552734e-01
   -5.00313757e+01   2.32758919e+01   1.71547739e+01  -1.16547560e+00
   -7.45907954e+00   4.39578860e+01  -2.72667136e+01   8.60503610e+00
   -3.02533540e+01  -2.57437596e+01   1.29316216e+01  -7.37539039e+01
   -9.82657264e+00   3.10230667e+01  -2.86357710e+00   1.15600296e+01
    7.82062482e-01  -4.15897139e-01]
 [  2.36941306e-01   5.97189670e+01   1.97266984e+00   7.99106471e+00
    6.10355143e+00   5.95175787e+00   1.18744507e+00   4.35860588e+00
    1.20129996e+01   5.76981703e+00  -5.84601299e+00  -4.66875635e+01
    1.52229685e+01   5.00257318e+01  -1.26614336e+01   2.94556257e-01
   -2.08926669e+01  -8.90252117e+00  -3.02592933e+01   2.17550422e+01
    6.46354511e-01  -3.59777368e+00   3.75378550e+01  -2.60235898e+00
    6.95899952e+00   1.98117247e+00   5.08884689e+00  -2.70162476e+00
   -4.77473126e+01   6.33652456e+00  -1.45868213e+01   1.58004172e+01
    1.72818029e+00  -5.72333144e+00  -2.04802058e+01  -3.23809987e+01
   -1.74857924e+00   5.75500997e+01  -2.15106186e+01  -2.92629853e+00
    1.67142643e+01  -3.45572488e+00  -2.88837386e+01  -8.10743032e+01
    3.76782967e+00   8.20392009e-01]
 [  1.70704925e+00  -2.60709006e+01   6.31924613e-01   9.67210920e-01
   -3.67053998e+01   1.43811748e+01  -2.86000834e+01   1.61145235e+00
    1.50225520e+00  -2.74473889e+00   5.86110548e+00   4.25413928e+00
   -9.86704359e+00   2.54922889e-01  -2.11502663e+01   2.46912480e+00
    2.13150382e+01  -2.22657956e+01   1.11872245e+01  -4.84390637e+00
    1.37537350e-01  -7.40625620e+00   2.48072575e+01  -1.15843418e+01
    2.05101969e+00  -1.53737622e+01   1.24113437e+01   4.98456388e+01
   -1.14660675e+01   5.54709541e+00   1.76366267e+01  -3.28028973e+00
   -2.36071638e+01   1.27211817e+01  -1.03892776e+01   2.47873805e+01
    2.62912748e+00  -5.30101964e+01   5.52231559e+00  -3.39037243e-01
   -1.46459843e+01  -1.52001405e+01  -9.21606408e-01  -7.21437556e+00
    1.30131964e+01   1.11786724e+00]]
MSE de entrenamiento: 0.028858
MSE de test: 0.031802
CCR de entrenamiento: 88.89%
CCR de test: 88.00%
Numero de coeficientes: 46
Matriz de confusion: 
[[43  3  1  0  1  2]
 [ 1 43  1  2  3  0]
 [ 1  0 46  0  1  2]
 [ 2  4  1 42  1  0]
 [ 0  1  2  0 45  2]
 [ 1  1  0  1  2 45]]
*********************
Resumen de resultados
*********************
MSE de entrenamiento: 0.028717 +- 0.000710
MSE de test: 0.030495 +- 0.001588
CCR de entrenamiento: 88.78% +- 0.54%
CCR de test: 88.60% +- 0.65%
Numero de coeficientes: 46.00 +- 0.00
CCR de entrenamiento: 88.78% +- 0.54%
CCR de test: 88.60% +- 0.65%
