-----------
Semilla: 10
-----------
Número de RBFs utilizadas: 45
Coeficientes (sesgo al final):
[[  4.16804198e-01   1.32831257e+01  -1.72577408e+00  -7.51815571e+00
   -3.51039512e+00   7.21784344e+00   8.32846355e+00   4.31819481e+00
    2.59629246e+00  -5.77401194e+00   5.21008092e+00   1.08629821e+01
   -2.72008118e+00  -1.63771286e+00  -3.02825274e+00  -1.96590636e+00
   -4.44923608e+00  -2.89629129e+00  -7.83236743e+00  -4.17475571e+00
   -4.64288407e+00  -1.51809120e+00  -3.47446053e+00  -1.41022640e+00
    8.51111160e+00  -1.00367299e+00  -1.95514292e+00  -1.63046128e+00
   -7.15544083e+00  -2.44469510e+00   2.12564464e+01  -2.41551077e+00
    2.22302524e+00  -7.07193294e+00  -3.25911731e+00  -3.40568466e+00
   -1.96217523e-01   1.83997943e+01   2.09593331e+00  -1.12729774e+01
   -2.45603002e-01  -2.40843442e-01   6.44031483e-01  -5.04773668e+00
   -1.34348976e+00  -1.86527753e+00]
 [ -2.34682453e+00  -8.73392219e+00   2.08103440e-01   4.98980565e+00
   -3.99981272e+00  -2.33186359e-01  -1.51365322e+00  -2.26011120e+00
   -2.03548517e+00  -2.61088189e+00  -1.73404575e+00   1.40225397e+00
   -7.53407487e+00  -5.22395652e+00   7.41086354e-01  -2.09387004e+00
    1.10193907e+01  -9.80231492e+00   2.84324146e+00  -8.17157266e+00
    1.32119697e+01  -9.83115283e+00  -1.21023702e+01   1.92992692e+00
    7.02608673e+00  -7.64138658e+00  -6.22032712e+00  -2.67780226e+00
    5.52555761e+00  -1.37543786e+00  -7.69653178e+00   2.98670850e+01
   -9.05669923e+00  -5.56600593e-01  -1.91639771e+01   4.34752981e+00
    1.36780847e+00  -9.36165575e+00   1.76791433e+00   1.02876222e+01
    7.46924409e-01  -8.02673922e-01   4.81821719e+00   9.91590310e+00
    1.18422609e+01  -1.28687671e-01]
 [ -1.28419897e+01  -4.49969846e+00  -3.66090681e+00  -6.74493602e+00
    1.11809464e+01  -7.79037337e+00  -1.22803209e+00   2.04198303e+00
   -1.79866735e+00   1.80785160e+00  -1.50581073e+00  -3.52197308e+00
    7.12475569e+00  -7.23085558e+00   4.17858911e+00  -1.40810492e+01
   -3.63140658e+00  -4.68782148e+00   1.87327484e+00   2.62495703e+00
   -6.81960571e-01   2.82515770e+01  -9.67923034e+00  -8.87193544e+00
    2.01831898e+00  -3.23532581e+00  -2.65766805e+00   4.92518983e+00
   -3.85973989e+00   1.02789095e+01   5.31562587e+00  -4.99718196e+00
   -1.24730665e+00   8.16667191e+00  -2.90786382e+00   1.66083897e+00
    1.19116746e+01  -4.93256523e+00   6.95843864e-01  -6.61569983e-01
    3.65874931e+00   1.05651282e+01  -4.07230973e+00  -8.73026692e+00
   -5.59292569e+00  -1.01341925e+00]
 [ -5.19577299e+00  -3.04217218e+00   1.20156037e-01   4.75228631e+00
   -1.24419828e+00   2.53048279e+00  -8.46279059e+00  -3.79932916e+00
   -2.86595609e+00   7.30521607e+00   3.59650813e+00  -1.76570558e+00
   -7.87644061e+00   6.60757184e+00   2.68672997e-01  -3.52716017e+00
    2.25670720e+00   1.32350012e+01   5.89446034e+00  -1.86911128e+00
   -7.31506192e-01  -1.38721255e+01   2.47121516e+00  -1.74751107e+00
   -1.65017533e-01   2.10601282e+01  -7.92059501e+00  -7.05459809e+00
   -2.76790120e+00   6.84892182e+00  -1.32438657e+01  -1.48373340e+01
   -6.07880387e+00  -2.40877833e+00   2.08183087e+01   4.71595117e-01
   -4.70333528e+00  -5.89697459e+00  -1.69286141e-01   5.41604432e+00
    1.68932997e+01  -1.73606370e+00  -1.44779706e+01  -7.96693860e+00
   -2.01014332e+00  -5.65128350e-01]
 [ -3.01295664e+00  -3.37960460e+00   7.88830590e+00   6.35231667e+00
    9.59107438e+00  -3.41487151e+00  -1.60926793e+00  -1.71714086e+00
    3.62492575e+00  -9.48111611e-01  -2.72666114e+00   3.34118277e+00
   -3.03849543e+00  -1.28252534e+01   6.19300106e+00  -5.91484822e+00
   -5.61969554e+00  -1.36555279e+01  -4.97935773e-01   1.72501067e+01
    1.65592187e+00  -1.30487274e+01  -5.83302313e+00   3.66678214e+00
    2.58392064e+00  -8.17299089e+00   8.34718826e+00   1.70341813e+00
    1.40163224e-01   7.31143564e+00  -8.71982459e+00  -1.37518463e+01
    9.70604641e+00  -8.97678401e+00  -3.83100675e+00   2.53814002e+00
   -2.50849988e+00  -8.82123578e+00   7.61386526e+00   4.56677355e+00
    6.43758933e-01  -6.58708116e-01   1.57148157e+01   1.66641313e+01
   -4.15459995e+00  -1.24398143e+00]
 [  1.69120564e+01  -1.01778866e+01  -4.08648645e+00  -6.76441980e-01
   -1.65242211e+01  -6.01626606e+00   4.53781518e+00  -7.76686579e+00
   -1.74761329e+00   9.11370907e-01  -1.37225759e+00  -1.43870489e-01
   -5.55788953e+00   1.51905361e+01   3.99413265e+00   1.09796953e+01
    5.18137604e+00  -2.18768601e+00   1.00724971e+01  -9.12124080e+00
   -2.61948408e+00  -8.00227043e+00   6.41306243e+00   1.00633209e+01
   -1.13200483e+01  -2.15333127e+00  -7.93841853e-01   6.30853464e+00
    1.87987705e+00  -1.37384013e+00  -2.81952248e+00  -5.46510942e+00
   -9.70156193e+00   1.11108115e+01  -4.68779319e-01   8.35126891e+00
   -1.04844416e+01  -4.27237375e+00  -1.38065700e+01  -8.46810723e+00
    5.53946678e+00  -4.07503346e-01  -8.40242038e+00  -6.02736487e+00
   -4.47835341e+00   2.52962889e-03]]
MSE de entrenamiento: 0.034222
MSE de test: 0.030706
CCR de entrenamiento: 86.22%
CCR de test: 89.67%
Numero de coeficientes: 46
Matriz de confusion: 
[[47  0  0  1  1  1]
 [ 2 45  0  2  1  0]
 [ 1  0 46  0  1  2]
 [ 2  6  0 41  0  1]
 [ 0  1  1  0 45  3]
 [ 2  0  0  1  2 45]]
-----------
Semilla: 20
-----------
Número de RBFs utilizadas: 45
Coeficientes (sesgo al final):
[[  5.57436448e+00  -1.84840901e+00   1.14903739e+01  -2.21371980e+00
   -8.13524710e+00  -8.75090893e+00   2.86903755e+00  -1.01594204e+01
   -6.98725545e+00   1.04138779e+01   4.57778816e+00  -4.55208584e+00
    2.32410243e+00  -7.22206863e+00   1.25668830e+00  -2.15013593e+00
    3.25363244e-01   1.69389170e-01   5.97150595e-01   2.17710041e+00
    7.81025782e+00  -1.10643147e+00   8.03297710e+00   7.17137218e+00
   -2.76756090e+00  -1.21820322e+00  -5.00270297e+00   2.11213451e-01
    3.77291711e+00   1.54948129e+01  -3.24426027e+00  -9.18346167e+00
   -2.66819491e+00   8.28251843e-01  -4.68033944e+00  -3.39784373e+00
   -7.16469850e+00   2.08893872e+01  -4.86703807e+00  -5.62875732e+00
   -6.15950506e+00   1.03141836e+01  -1.02337390e+01   1.07028533e+00
   -4.58211688e+00  -1.71127897e+00]
 [ -2.31506238e+00  -1.68231479e+00  -7.98236183e+00  -1.52913963e+01
   -8.40300325e+00   6.40551663e-01   2.94222287e-01   5.83155770e+00
    2.43837503e+00   6.74384530e+00   6.01240213e+00   1.43149791e+01
   -2.44940819e+00   7.49708232e-01  -4.97760005e+00   2.43476948e+00
   -8.84493602e+00   1.20087884e+01  -2.26088827e+00  -3.03853098e+00
    1.57856547e+00   1.87003561e+00  -6.44406388e+00  -1.48802478e+00
   -4.58947288e+00  -4.41129181e+00  -6.30556782e+00   1.70694260e+01
   -6.37191679e+00  -1.07068121e+01  -8.44629312e+00  -7.28013877e+00
    1.35009062e+00  -6.25163882e+00   1.14049292e+01  -1.52910470e+00
   -6.28077802e+00  -7.38035491e+00   1.71691744e+00   2.15512606e+01
   -6.20763460e+00   3.42475918e+00   5.98464313e+00  -6.34057385e+00
    6.46103569e-01   1.10618152e-01]
 [  1.19882095e+00  -3.20048049e+00  -1.60622168e+00   1.99645156e+01
   -3.89677201e+00  -1.01599167e+01  -4.07355311e+00   4.58095241e+00
    3.31175794e+00  -6.54708261e+00  -4.32842733e+00  -3.26593458e+00
    3.37325883e+00  -9.96775781e-01   7.34822500e+00   5.45814019e+00
    1.11628059e+00  -3.31770330e+00   7.89553177e+00   7.67000233e+00
   -4.37271092e+00   2.08438619e+00  -3.53472080e+00  -3.78971739e+00
    2.33704555e+00  -1.72289312e+01   1.90584583e+00  -1.07435203e+00
   -6.57960632e+00  -1.58022601e+00   2.02087945e+00  -5.30853157e+00
   -7.88219612e+00  -4.80234916e+00   1.21169958e+01   1.10726997e+01
   -8.62533971e+00  -2.55922845e-02   3.01545042e+00  -7.57609595e+00
   -8.67301256e+00   6.01369263e-01  -3.15838921e-01   5.44759058e+00
    3.50504316e-01  -8.12594139e-01]
 [ -8.65808603e-01  -5.22613640e+00  -7.17149670e+00  -8.96203503e+00
   -2.14327934e+00  -3.67961618e+00  -3.00081634e+00  -5.79418178e+00
    1.13373333e+01  -7.77208277e-01   5.21774152e-01  -5.07183198e+00
   -4.24269994e+00   1.61457186e+01  -5.94149236e+00  -7.52491765e-01
   -9.85192910e+00  -3.18434807e+00  -8.88821971e+00  -5.11809863e+00
    7.71176932e+00  -1.08993685e+01   7.11437537e-01  -1.25603934e+00
    1.17456801e+01   1.91757908e+00   1.42983942e+01  -1.43919626e+01
    7.37391582e+00  -7.51359134e+00   1.37049253e+00   1.40883943e+01
    1.34305469e+01  -7.13131904e+00   7.51887693e+00  -7.08394222e+00
   -6.17941004e+00  -1.16142236e+01   5.62793779e-01  -1.13322296e+01
    1.20303654e+01   3.85512300e+00  -1.34626732e+00   8.04163394e+00
   -7.77120627e+00  -3.21724619e-01]
 [ -8.54407594e+00   1.28780770e+01   2.96452063e+00  -1.03154168e+01
   -1.89952052e+01   2.94778903e+01   2.80036788e+00   8.91134642e+00
   -1.04217014e+00   1.32556963e+01   2.46302060e+00  -1.71240848e+00
    3.10285794e+00   3.02708307e+00   4.95992358e+00   6.41600852e+00
    5.92248723e+00  -3.85835090e+00   3.34759637e+00  -1.92432057e+00
    5.68255778e-01   7.30803589e+00  -1.22248497e+01  -3.28867515e+00
   -3.14019278e+00  -2.03299624e+01  -9.52645930e+00  -2.82291805e+00
    5.45688869e-01  -3.43168055e+00   4.14972842e+00  -1.29180606e+01
   -4.21626033e+00  -8.78963747e+00  -8.54748449e-01  -1.01602230e+01
    2.41692276e+01  -8.21782618e+00  -4.03132601e+00  -3.28535879e+00
   -7.21024860e-02  -2.68243630e+00  -1.42204014e+00   3.41489880e+00
    7.65203878e+00  -6.34624303e-01]
 [ -3.04647166e+00  -4.34065009e+00  -6.48578120e+00  -4.65360789e+00
    1.87518317e+01  -1.73854397e+01  -1.05276666e+01  -3.35619132e+00
    9.84347182e-01  -1.39642242e+00   2.27684054e+00  -1.32574169e+01
   -5.41498317e+00  -1.42277862e+00   2.93266254e+00   8.59233719e+00
    4.48986054e+00  -1.93639806e+00  -3.04902385e-01  -3.60476755e+00
   -4.24660726e+00   5.15789742e+00  -2.41799418e+00  -1.80021745e+00
   -2.17159710e-02   2.08412386e+01   1.80146444e+00  -4.80259473e+00
   -2.66912300e+00  -1.13292691e+01  -8.65134320e+00  -3.24327232e+00
   -5.24541554e+00   2.29643760e+01   1.79745360e+00  -4.13342639e+00
   -7.22780488e+00   1.37426100e+00   1.26267775e+01  -7.79344924e+00
    3.12800748e+00  -8.23786804e+00  -1.86145906e-02  -5.89386587e+00
   -1.21834721e+00  -1.08545451e-01]]
MSE de entrenamiento: 0.034849
MSE de test: 0.031214
CCR de entrenamiento: 86.44%
CCR de test: 89.00%
Numero de coeficientes: 46
Matriz de confusion: 
[[44  2  0  2  1  1]
 [ 1 45  0  3  1  0]
 [ 1  0 45  0  1  3]
 [ 1  4  0 45  0  0]
 [ 1  2  1  0 42  4]
 [ 1  0  0  2  1 46]]
-----------
Semilla: 30
-----------
Número de RBFs utilizadas: 45
Coeficientes (sesgo al final):
[[ -6.82816827  -9.06380963  19.96817779  -5.16267955  -5.04397244
   -7.51879153   1.15406963  -1.09431926   1.36842046   9.12997643
   -0.46223597  -4.44664401   1.99784873  -5.48569181  -2.17283528
    5.287713    -6.14102616  -4.25214766  -4.74326531   0.06091631
    0.50006943  -2.28396894  -0.47001418  -7.81524321  -3.22338357
   -2.92660026  -4.33561003   7.80002492   1.73433976   1.58122388
    5.04119884   0.91311119  -3.81722062   0.55364191 -10.86067047
    5.768309     2.65544005  -7.7017337    0.26034678  -6.93691727
   -3.24646664  21.51182313   0.97689504   9.29208968   7.56856692
   -1.46885342]
 [  2.47016597 -13.14066709  -5.56165243   3.4808417   16.36576404
    8.70491509  -7.25883253 -11.26444457 -11.66688832   5.58039934
    4.65970863  22.81409483  -2.96727488  15.45847138  -3.32930756
   -4.2854815    0.18335193   6.3869934   -8.95339048  -6.82182907
    1.03760438   2.58621275  -0.27629093   3.49546242  -3.6365103
   -8.20657976   3.6253509   -1.17671375  -7.03931075  18.42544053
   -1.86658629  -5.19092768  -0.78265486   1.03498355  -6.20183372
    0.06224585  -4.95343262  -2.61679064   6.01911579  -2.18794176
   -9.85518309 -11.09355496   3.55283778 -10.42070309  -2.59677701
    0.19717212]
 [  2.74123359  -4.7045025   -2.92259149  -0.208139    -8.86124493
   -4.13514964  -6.45737619  22.76634236  -0.32356334  -3.66837196
    4.53218811 -13.97063991 -19.35099859  -3.64368968   6.75340517
   -1.56218997  -0.23547118  -2.66230131   0.05747078 -10.6854596
   -2.74823743  -0.4184743   -0.23234801   5.70816034   2.88117719
   -9.63906395  -4.89567506  -3.59373853  16.08654575  12.53337114
    0.30633722   7.32714057  -6.84230364   0.0755928    9.6874232
   11.03690466  -4.22981868  -0.20826207  -0.94838528  -0.69329431
   -2.28886517  -5.72905733   3.44186014  -0.12425026  -1.52138733
   -0.56907781]
 [  8.07520837   1.66775765  -8.48706774  -3.92291573  -1.77707908
    2.19868394   9.80272395 -11.10412089  -8.34205787  -5.88777874
   -3.59892554 -11.0329328   -8.7396212   -2.65314063  -4.37263907
   -3.15771901   3.21690537   5.70181056  -4.33623242   3.36549182
   -0.21516107  -4.80137324   4.24733957  -5.10025051   9.70062501
   -1.95648735  -1.97945686  -2.69558676   0.57647124   4.17574741
  -11.0254602   -3.40479129  19.53615814  12.11933966   3.81377266
   -7.75576065   2.5090646    8.79863479 -12.51777535  -2.29431326
   12.0477784   -8.08410093  -3.32917062   1.97230609   2.03865394
   -0.5180026 ]
 [ -0.62183756  -3.0574878   -3.10755285   0.37320443  -6.58804423
   -3.72927038 -26.34924367 -11.36725175   6.17779635  -1.34871585
   -2.47096013   2.71639086  -5.59026125  -2.50138225  -0.67351786
   -2.33340519   7.85226853   6.46442213   2.61749815 -13.95242597
    7.73547634   7.42886693   5.14027252  -4.21871721   2.031675
   24.36775791   2.20327255  -1.07878822  -9.61561542  11.78697741
   -2.39403877  -5.25347152  -0.2939063  -10.50075336  17.27585677
    9.38202981  -1.93156585   3.91252527   6.24431745   8.16895178
  -12.15898806 -10.19291041   0.08985789  -2.06449506  -5.99063717
   -0.44167994]
 [ -1.47445875   3.8162349   -8.53765055  14.45104329  -5.34707621
   -1.90652567   5.54889407  -8.08620826 -10.77123878  -8.69726892
    2.54784522  -6.62097116  23.35280407  -5.08114336   5.94611509
  -11.04594637   3.00992423   6.3156756    5.53127198  13.39754205
   10.29034047  -8.71140108   3.03925034  -0.4802644    1.35292536
  -12.72483842   5.92268105  -1.97856305  -0.42204394  -1.88106258
    6.01863331  -6.66970031  -6.93515341  -1.75305503 -17.58014156
    2.76621019  -3.60261371  -1.91739618 -11.88137292 -10.75976507
   -1.82124314  -0.76347712  -6.68918254   2.47179696   5.01539986
   -0.60073462]]
MSE de entrenamiento: 0.035569
MSE de test: 0.033853
CCR de entrenamiento: 86.22%
CCR de test: 88.00%
Numero de coeficientes: 46
Matriz de confusion: 
[[43  2  1  1  1  2]
 [ 1 45  1  2  1  0]
 [ 0  1 45  0  1  3]
 [ 2  4  0 42  1  1]
 [ 1  2  2  0 43  2]
 [ 1  1  0  1  1 46]]
-----------
Semilla: 40
-----------
Número de RBFs utilizadas: 45
Coeficientes (sesgo al final):
[[ -1.87515660e+00   6.24568550e+00  -8.58886792e-01  -5.05873374e+00
   -4.92153789e-01   5.81180398e-01  -4.02831812e-01   1.42307610e+00
   -5.75558112e+00  -6.71881015e+00  -5.76283081e+00  -6.75817544e+00
   -7.06411043e+00  -4.98397718e+00   2.55931881e+00   2.39333347e+00
    7.70203219e-01  -3.15026464e+00  -3.55933337e+00  -1.92305676e+00
    9.56488990e-02   2.03007162e+01   9.45330959e+00  -3.21974764e+00
   -5.09909012e+00  -3.89131259e+00  -4.67467319e-01  -2.66472378e-01
    3.68772150e+00  -8.00664297e-01  -3.96989782e+00   8.64628370e+00
    8.77830409e-01  -7.95236052e+00   9.34544256e+00   1.38254251e+00
   -5.97853743e+00  -1.02408747e+00   1.71144073e+01  -9.90848191e-01
   -6.33832340e+00  -9.60504851e-01   6.67870200e+00   3.40674506e+00
   -8.13448269e+00  -1.79423623e+00]
 [  3.76454855e+00  -1.28246828e+00   9.75638020e+00   1.69716613e+01
    9.75435869e+00  -4.70518406e-01   3.59330165e-01  -8.14903736e-01
   -6.90670127e+00  -8.64547612e+00   9.78714215e+00  -1.16588415e+01
    5.82898991e+00  -1.00749805e+00  -3.94745345e-01  -4.81078485e-01
   -7.71694689e+00  -6.78964376e+00  -5.39486641e+00  -1.36969000e+01
   -3.93538076e+00  -9.37593501e+00  -6.50625841e+00   1.01878454e+00
    9.70240209e+00  -9.04703948e+00  -1.88812342e+00   1.46471359e+01
    6.49649030e+00  -9.81851157e+00   8.31185173e+00  -4.56198365e+00
   -8.07221924e+00  -3.58420401e+00   1.79175902e-01  -3.65044782e+00
    8.54220477e+00  -8.01245581e+00  -1.00196097e+01   1.95888020e+01
   -2.32003370e+00   4.07141058e+00  -2.71034533e+00  -4.05441022e+00
   -4.05290350e+00  -1.31528995e-02]
 [ -9.55725613e+00  -6.12159662e+00   9.46634362e-01  -6.23240962e+00
    2.81803995e+00   3.82124248e+00  -1.38833602e+01   1.04630410e+01
   -4.46535170e+00  -5.97096112e+00  -6.35432714e+00   1.46563585e+01
   -3.55049756e+00   1.07579228e+01   4.94948073e+00   4.42350616e+00
    1.47797123e+01   2.90116653e+00  -6.92229869e+00  -3.43581905e+00
   -8.65198230e+00  -4.71561447e+00  -4.65989555e+00  -1.01776280e+00
    2.35767027e+00  -6.95905650e+00  -3.29899437e-01  -2.37490335e+00
   -6.24442542e-02  -2.68129135e-02   1.23183847e+01   1.21901352e-01
    4.37440677e+00   7.66082858e+00  -2.26863458e+00   6.01547052e+00
   -5.23445547e+00  -6.06622747e+00   3.82371358e+00  -4.46591618e+00
    7.32466323e-01  -9.42502702e+00   6.44547533e-01  -2.29839476e+00
   -2.87890626e+00  -8.80804528e-01]
 [ -3.12656302e+00   1.11895341e+00  -4.54516404e+00  -7.62048642e+00
   -1.07925450e+01   6.61245626e+00  -5.92786420e+00  -1.28397910e+01
    1.53578685e+00  -2.00948839e+00   1.64501754e+01  -9.22552848e-01
    6.91125827e+00  -2.76133934e+00   3.89605277e+00   5.12525738e+00
    9.30068916e-01  -5.79219721e-01   1.13286460e+01   1.29223201e+01
   -8.95568649e+00  -1.08023817e+01  -6.01354135e+00  -6.66288629e+00
    1.57753649e+00   2.51263866e+01  -6.46531828e+00   5.50747437e-02
    1.52857280e+00   1.23446009e+01   1.69967121e-01  -3.33001956e+00
   -6.96530042e+00  -3.78745607e+00  -2.25881860e+00  -7.81942899e+00
   -5.21590812e-01   6.27535092e+00  -7.34644786e+00  -1.13676194e+01
    9.68856642e-01   1.00371647e+00  -1.86743027e+00  -6.33691527e+00
   -4.78456681e+00  -3.61289948e-01]
 [  1.61483630e+01  -2.49333375e+00   1.11942566e+01  -1.36681792e+00
   -3.76434493e+00  -3.11149850e+00  -1.44912716e+01   1.10709702e+00
   -6.04856221e+00   8.40406875e+00   9.63030320e-01   1.94064980e+00
   -1.27443086e+00  -7.82580076e+00  -1.95956373e+00   2.51654370e+00
   -1.03057274e+01  -4.03622876e+00  -1.16021853e+01  -4.41515231e+00
    2.54255920e+01  -4.27484699e+00   4.87846501e-01   6.61662293e+00
    5.74007519e+00  -9.95717503e+00   1.90650053e+00  -3.09330333e+00
    6.58271886e+00  -4.04095289e+00   6.04018506e+00   4.84488030e-01
   -2.72168780e-01   2.17015224e+01  -5.19114121e-02  -8.32353129e+00
   -5.76623658e+00  -1.76167008e+01  -4.41591828e+00   2.93972132e-01
   -1.95978277e+00  -6.25061891e+00  -3.78446728e+00   6.88532806e+00
    4.35287027e+00  -6.43747205e-01]
 [  8.66282485e+00  -9.11480781e+00  -7.08728374e+00  -8.68119641e+00
    3.73665588e+00   1.17880981e+01   1.62610137e+01  -5.56086410e+00
    3.70896905e+00  -2.63237326e+00   5.14076586e+00  -6.91518660e+00
    2.96845488e+00  -8.73493639e+00  -3.42232816e+00  -7.67140967e+00
   -4.54528472e-02  -1.08659891e+01  -5.16623459e+00  -2.82808844e+00
   -1.13403133e+01  -5.14272993e+00  -9.70609300e+00  -1.66479413e+00
   -2.80186602e+00  -4.22459823e+00   8.51273943e+00  -7.62296680e+00
   -1.04445378e+01   4.66422795e+00   2.51336705e+00  -1.06998444e-01
   -4.79865354e+00  -2.07443009e+01   6.20869362e+00   1.16931454e+01
    1.29064970e+00   1.03154186e+01  -4.76171343e+00  -5.78181230e+00
    9.43921589e+00   1.42319012e+01  -1.05310202e+01   2.96773598e+00
    3.51179123e+00   5.56240459e-02]]
MSE de entrenamiento: 0.035847
MSE de test: 0.031543
CCR de entrenamiento: 85.67%
CCR de test: 90.00%
Numero de coeficientes: 46
Matriz de confusion: 
[[46  1  0  2  0  1]
 [ 1 45  1  2  1  0]
 [ 1  0 46  0  1  2]
 [ 1  5  0 43  0  1]
 [ 1  1  1  0 44  3]
 [ 1  1  0  1  1 46]]
-----------
Semilla: 50
-----------
Número de RBFs utilizadas: 45
Coeficientes (sesgo al final):
[[  0.06909204  -2.83593727  -4.81080166  10.39939229   1.88857332
    2.84211559  13.768176    -5.90058413  -0.65783171   2.16988751
   -4.99636178  -6.17790185  -6.80638103  -4.96855739  -2.29385321
   -6.70784923   0.40246933  -1.45447683  -2.87043131   3.01615975
   -3.47509706   5.39160298  -0.27272962   7.38416087  -0.0640971
   -6.86605509  -4.93263582   2.32066764  -0.93566595  -8.30146964
   -6.36137152  -6.50438482  10.79803174  -1.3471512   17.60483227
    1.80761392  -5.165756    -1.27833652  -0.10235229  -0.87379231
   -0.38600761  -1.82990584   0.28927626  -2.3117081    5.05208638
   -1.08846393]
 [  4.16498616   6.76588938  -1.27733134  -7.80277258 -11.12997697
  -12.43037401  -8.55200606   3.4643745   13.26083064   1.88923565
    5.67579956  18.88096384  -3.13529703 -10.42743892  -6.41084919
    7.7175952   -9.47861352  12.72031473  -7.73192248   0.27688974
   -0.615725    -1.67747223  10.82290598  -1.40471404   8.71205623
    4.45063291   0.20264015  -4.46935118  -0.21318358 -10.3037734
   -9.00100116  12.40475414  -2.43170679  -1.53221558 -12.4797068
   -3.74130368  -0.81690739  -2.39495243  -2.21291147  19.09207824
   -9.78448738  -8.10957284   6.52545211  -3.60737131  -2.75575476
   -0.0414515 ]
 [  0.83801841   0.57251055   5.51270285   0.82854919   7.77823316
    1.51433677  -5.81289354  -3.77838125  -2.87194182  -1.45448454
   -0.21519999  -3.75571289   1.88774728  -2.96146409  11.82739297
   -0.33969468  11.70995219  -6.34021714   0.25713098   3.98554878
    6.13629251  -5.38030926  11.40933556  -0.04350634   4.45325923
   -2.59917945  -2.8844023  -20.95796653  12.37009533   8.65265166
   -5.8376818    7.2371393    0.425761     4.15158481   1.10031029
  -12.42076468   8.58721457 -10.05010969  -1.71272767  -4.22102514
   -1.41209525  -5.54553989  -8.64690202  -6.92973455 -11.61729521
   -0.92634083]
 [  2.25207756  -4.86134999   1.25307073   1.01467496  -6.93440925
  -14.33438101  -3.49476236  -5.1404536  -11.87283697   2.76290221
    1.28722166  -5.51076707  -5.40276859  13.29762053  -5.3186894
   -3.4146079    1.65222446   4.28536118  15.92478433  -0.66483717
   -0.09712695   1.18723194  11.43122595  -2.82221355   1.32112505
    1.65069699  -5.26948201  -4.62278201 -10.98763173   4.95834033
    4.92206021   1.55830144  -3.21558325  16.662071   -11.95686301
    3.17673849  -6.88907817 -10.42262354   9.5283497  -12.29634249
   -5.13832923  11.75061939  -0.83504852   9.03367009  -0.62828805
   -0.57593556]
 [ -0.19228757  20.25486364  -0.05183728  -1.16077436   0.55711762
    3.79712797   0.68993875   3.08558964   3.03848796   1.23720215
   -3.61225577 -10.62166021   8.89122691  -1.97434692  -8.40998383
    0.32724361  -7.56938147  -6.37182865 -11.40628857  12.40031745
    1.51788693  -2.06946648  13.3769179   -3.38604002   4.19569292
    4.97557194   3.63817751   0.69807666 -14.58449538   2.95939151
   -7.84607029  12.53827259  -0.56818273  -3.54377239  -7.85007489
  -16.5776535   -2.48940394  28.85940664 -12.090657    -2.86924922
   12.24530179  -0.29447353 -14.04375607 -16.30797159  -2.4285989
   -0.2354907 ]
 [ -1.03985885  -6.12348902   1.55543961   1.44228554 -12.25849172
    8.98349276 -13.11359234   1.38235628  -0.90104322  -0.4902613
    1.40433563  -6.16526235  -4.30765082  -2.19178848  -9.02157935
   -0.52507593  -3.46719292  -7.6714826    2.82094568  -7.46103605
   -0.47578403  -5.10606725   4.7206148   -9.23695881   1.5590562
  -11.49766527  10.27805721  19.18292321  -4.52492435  -2.77513383
    9.33264084  -5.25841724  -5.47899708  10.28705326  -3.80684585
   17.26227569   4.08623384 -18.54650062   1.4582147   -2.43136354
   -6.59293256  -4.48603142   0.72165787  -2.46226171   3.42805633
    0.44761274]]
MSE de entrenamiento: 0.034757
MSE de test: 0.032290
CCR de entrenamiento: 86.89%
CCR de test: 88.33%
Numero de coeficientes: 46
Matriz de confusion: 
[[43  3  0  2  0  2]
 [ 1 44  0  3  2  0]
 [ 1  0 46  0  1  2]
 [ 2  4  0 43  0  1]
 [ 0  2  1  0 45  2]
 [ 1  0  0  1  4 44]]
*********************
Resumen de resultados
*********************
MSE de entrenamiento: 0.035049 +- 0.000586
MSE de test: 0.031921 +- 0.001094
CCR de entrenamiento: 86.29% +- 0.40%
CCR de test: 89.00% +- 0.76%
Numero de coeficientes: 46.00 +- 0.00
CCR de entrenamiento: 86.29% +- 0.40%
CCR de test: 89.00% +- 0.76%
