iris: ./practica2 -t ../../basesDatosPr2IMC/dat/train_iris.d
at -T ../../basesDatosPr2IMC/dat/test_iris.dat -h 75 -l 1 -v 0.1 -d 1 -f 1 -s -e 0.7 -m 1.0
nomnist: /practica2 -t ../../basesDatosPr2IMC/dat/train_nomnist.d
at -T ../../basesDatosPr2IMC/dat/test_nomnist.dat -i 500 -h 75 -l 2 -v 0.0 -d 1 -f 1 -s -e 0.7 -m 1.0
